t1_cgtjm8o@#@[Top comment](http://i.imgur.com/WLkUUjU.gif)@#@2014-04-16T10:36:55
t1_cgtlcuy@#@*RIP YOUR CUMBOX*@#@2014-04-16T11:42:33
t1_cgtnp4g@#@Hi RT!!! You are the rounest tree I know!!! XDDD@#@2014-04-16T13:18:34
t1_cgtouxu@#@Gilded comment@#@2014-04-16T14:15:22
t1_cgtnzhb@#@https://i.imgur.com/CULB2S4.gif@#@2014-04-16T13:32:05
t1_cgto8wu@#@Postan in an epic breadd@#@2014-04-16T13:44:30
t1_cgtp4s5@#@Top comment in top comments?@#@2014-04-16T14:29:56
t1_cgtly28@#@Riding the karma train@#@2014-04-16T12:04:56
t1_cgtozqr@#@Top reply to top comment?@#@2014-04-16T14:22:27
t1_cgtnznj@#@ALL ABOARD THE KARMA TRAIN. WOOT WOOT.@#@2014-04-16T13:32:19
t1_cgtltek@#@this should literally be the top comment@#@2014-04-16T11:59:48
t1_cgtp5fk@#@Replying because best source of karma is here@#@2014-04-16T14:30:57
t1_cgtlsue@#@LOL CHOO CHOO KARMA TRAIN AMIRITE?@#@2014-04-16T11:59:12
t1_cgtnbi9@#@Reddit is so predictable!@#@2014-04-16T13:01:34
t1_cgtmsm7@#@Leech comment.@#@2014-04-16T12:39:04
t1_cgtlr8u@#@Reply berating top comment@#@2014-04-16T11:57:32
t1_cgtqptm@#@*classic rountree*@#@2014-04-16T16:12:32
t1_cgtqdlv@#@Ain't no brakes on the Karma Train. Choo Choo motherfucker@#@2014-04-16T15:47:27
t1_cgto7fh@#@Top reply@#@2014-04-16T13:42:27
t1_cgtpajx@#@Woah were part of history!!!!!!!!!! Hey me in the future. I hope you're 20x cooler and way studlier@#@2014-04-16T14:39:02
t1_cgto2ym@#@This guy gets it. Upgoat.@#@2014-04-16T13:36:38
t1_cgtosnr@#@Thanks for the gold@#@2014-04-16T14:12:04
t1_cgtjmml@#@Verified with the mods.@#@2014-04-16T10:37:20
t1_cgtjn6q@#@Verified with /u/JasonGD1982 that it's verified with mods.@#@2014-04-16T10:37:54
t1_cgto0wk@#@[Groovy](https://i.imgur.com/FHN43kd.gif)@#@2014-04-16T13:33:59
t1_cgtqab9@#@Hi Jason@#@2014-04-16T15:40:59
t1_cgtjnj9@#@This is an irrelevant comment merely made for karma purposes. Ride the snake to the karma lake, friends. **Edit:** Watch *[Turn](http://www.imdb.com/title/tt2543328/)*, Sunday nights on AMC.@#@2014-04-16T10:38:16
t1_cgtp34e@#@Choo choo... http://imgur.com/vChPeZ4@#@2014-04-16T14:27:27
t1_cgtjr8a@#@I GOT A SNAKE, MAYNE!@#@2014-04-16T10:42:08
t1_cgtqujk@#@Snake? Did someone say snake? DAE snakes on a plane?@#@2014-04-16T16:22:40
t1_cgto45o@#@This.@#@2014-04-16T13:38:10
t1_cgtnln9@#@U wot m8???@#@2014-04-16T13:14:17
t1_cgtnes1@#@Commenting top comment for easy karma. Leave the upboats in the bag if you're reading.@#@2014-04-16T13:05:41
t1_cgtjspf@#@Shotgun@#@2014-04-16T10:43:45
t1_cgtmo99@#@M'lady@#@2014-04-16T12:34:02
t1_cgtps4w@#@Can you recommend Turn? Seems interesting. AMC shows are pretty hit or miss though. Reviews haven't been great.@#@2014-04-16T15:07:41
t1_cgtnz2k@#@https://i.imgur.com/CULB2S4.gif@#@2014-04-16T13:31:33
t1_cgtobxi@#@Free karma. [-UncleSamuel](/u/UncleSamuel) ##Tue Apr 15 2014 21:48:34 GMT-0700 (Pacific Standard Time)@#@2014-04-16T13:48:29
t1_cgtqj8c@#@>This is an irrelevant comment merely made for karma purposes. Ride the snake to the karma lake, friends. > This is an irrelevant comment > This is > This This@#@2014-04-16T15:58:51
t1_cgtmxzt@#@Woooo!@#@2014-04-16T12:45:24
t1_cgtp85p@#@RIP in peace your inbox amirite@#@2014-04-16T14:35:13
t1_cgtn7a5@#@As someone who definitely isn't who you were hoping to get an answer from, let me write a five page essay answering your question.@#@2014-04-16T12:56:24
t1_cgto3b6@#@Ok@#@2014-04-16T13:37:05
t1_cgtuoxh@#@Relevant username, dae novelty.@#@2014-04-16T21:56:59
t1_cgtof5v@#@I regret that I only have one upvote to give.@#@2014-04-16T13:52:53
t1_cgtmat0@#@Instructions unclear, got more karma than parent comment@#@2014-04-16T12:18:59
t1_cgtnmw6@#@Meet me at the back of the blue bus?@#@2014-04-16T13:15:50
t1_cgu3chu@#@Oh, ma bread sticks!@#@2014-04-17T03:13:32
t1_cgtoirs@#@DAE JIM MORRISON WAS A GOD???!??@#@2014-04-16T13:57:56
t1_cgtqfec@#@Are there any seats left on this snake?@#@2014-04-16T15:51:03
t1_cgtjqtx@#@&#3232;_&#3232;@#@2014-04-16T10:41:43
t1_cgtwys9@#@OMG WHAT DID IT SAY WHAT DID IT SAY?@#@2014-04-16T23:37:03
t1_cgu56es@#@Was it all fucked up?@#@2014-04-17T04:13:01
t1_cgtnuks@#@Speaking of mane... Judge:are you guilty Gucci mane: bitch I might be.@#@2014-04-16T13:25:39
t1_cgtpium@#@Um yea... I remember it being oc on 4chan@#@2014-04-16T14:52:09
t1_cgtorwj@#@You're a real 90's kid if you know about DAE jolly rancher doritos.@#@2014-04-16T14:10:57
t1_cgts3b4@#@Every.single.thread.@#@2014-04-16T18:21:19
t1_cgtkuo1@#@:/@#@2014-04-16T11:23:21
t1_cgtjs8j@#@But what does this have to do with atheism?@#@2014-04-16T10:43:14
t1_cgtjtej@#@For that matter, what does it have to do with gay weed?@#@2014-04-16T10:44:29
t1_cgto2ho@#@http://i.imgur.com/lKb60kK.gif@#@2014-04-16T13:36:02
t1_cgtk9sn@#@Everything has to do with atheism because there is always no god.@#@2014-04-16T11:01:32
t1_cgtok1v@#@Username checks out.@#@2014-04-16T13:59:51
t1_cgtps5e@#@Relevant http://i.imgur.com/etjgJ2D.jpg@#@2014-04-16T15:07:43
t1_cgtjsxn@#@This comment is going to go down in history.@#@2014-04-16T10:43:59
t1_cgtoc38@#@This is bullshit - you're oversimplifying a complex situation to the point of no longer adding anything to the discussion.@#@2014-04-16T13:48:42
t1_cgtvl3p@#@> / You can't fucking call shotgun so far away from the thread!! WTF MAN!!!@#@2014-04-16T22:40:33
t1_cgtqqx6@#@Kurt cobain@#@2014-04-16T16:14:54
t1_cgttajg@#@RIXTON@#@2014-04-16T20:24:02
t1_cgtkuax@#@Rosa Parks.@#@2014-04-16T11:22:59
t1_cgtm9m7@#@Choooo choooooooo@#@2014-04-16T12:17:37
t1_cgtokhq@#@Came here to say this@#@2014-04-16T14:00:25
t1_cgtx725@#@Kurt Cobain!@#@2014-04-16T23:45:45
t1_cgujdop@#@It has to do with the tru gem I found in my closet about liberalz and living wages@#@2014-04-17T12:13:09
t1_cgtl32s@#@On a scale of I'm high as fuck to legalize gay marijuana, where are my doritos?@#@2014-04-16T11:32:22
t1_cgtkwan@#@COMMENT IS GOING TO GO DOWN IN HISTORY@#@2014-04-16T11:25:07
t1_cgtk273@#@/r/bestof@#@2014-04-16T10:53:39
t1_cgto87w@#@Why do I have you tagged as Dad?@#@2014-04-16T13:43:33
t1_cgto48d@#@/r/wowthissubexists@#@2014-04-16T13:38:16
t1_cgtp02z@#@I'm hijacking this top comment reply.@#@2014-04-16T14:22:59
t1_cgtoqul@#@Fuck I'm old...@#@2014-04-16T14:09:29
t1_cgtk81r@#@What about /r/momjokes? Please check your privilege, you sexist piece of shit.@#@2014-04-16T10:59:45
t1_cgto63s@#@This@#@2014-04-16T13:40:46
t1_cgtprli@#@/r/bestofcraigslist@#@2014-04-16T15:06:45
t1_cgtplum@#@/r/retiredgif@#@2014-04-16T14:57:08
t1_cgtp7de@#@RIP arms@#@2014-04-16T14:34:01
t1_cgtlt7h@#@I can't even xD@#@2014-04-16T11:59:35
t1_cgtk9vp@#@hello /u/vast_amounts@#@2014-04-16T11:01:38
t1_cgu0jsb@#@There's no good Mom jokes.... Dads make the jokes moms roll the eyes that is the natural way of the world!@#@2014-04-17T01:42:46
t1_cgtzmt0@#@This is bullshit - you're oversimplifying a complex situation to the point of no longer adding anything useful to the discussion.@#@2014-04-17T01:12:04
t1_cgtnm93@#@*Bam. Kick it up a notch.*@#@2014-04-16T13:15:03
t1_cgtngt9@#@uhhhhh what about /r/2dadjokes? you know some people have two dads. and that's just great. please stop being so homophobic.@#@2014-04-16T13:08:15
t1_cgtr15w@#@Shouldn't it just be /r/parentjokes, then?@#@2014-04-16T16:38:02
t1_cgttzqc@#@DAE?@#@2014-04-16T21:15:15
t1_cgtos0j@#@/r/thanksobama Please please please karma karma!!!!!!!!!! Lol!!!!!@#@2014-04-16T14:11:07
t1_cgtqipb@#@Found the SJW lol@#@2014-04-16T15:57:46
t1_cgtoz3g@#@That was the bravest, most euphoric and enlightening thing I have ever heard.@#@2014-04-16T14:21:31
t1_cgtoq49@#@rekt@#@2014-04-16T14:08:27
t1_cgupf1d@#@Le wrekt in peace@#@2014-04-17T17:46:45
t1_cgtsi7s@#@This.@#@2014-04-16T19:07:28
t1_cgtku2f@#@hello /u/Rountree1@#@2014-04-16T11:22:43
t1_cgu1ba0@#@Haha Txt me@#@2014-04-17T02:08:12
t1_cgtrowy@#@Re[le]vant username!@#@2014-04-16T17:40:17
t1_cgtkb05@#@Upvote this comment if you're sick of all the karma whoring the mods do around here.@#@2014-04-16T11:02:48
t1_cgtnzqm@#@[Arm the Mob!](https://i.imgur.com/1HxssWo.gif )@#@2014-04-16T13:32:26
t1_cgts2yo@#@.@#@2014-04-16T18:20:15
t1_cgtv6pb@#@Fuck fuck fuck fuck fuck. I'm too fucking late!!!!!!1!!@#@2014-04-16T22:22:06
t1_cgtkfgw@#@(? ?? ?? ??)? This is our sub, mods! (? ?? ?? ??)? (? ??_??)? Yeah, beat it! (? ??_??)?@#@2014-04-16T11:07:23
t1_cgtoxeg@#@would you rather fight 1 hundred ducks or ride a hundred sized horses@#@2014-04-16T14:18:57
t1_cgton43@#@> This This DAE /r/dadjokes?@#@2014-04-16T14:04:05
t1_cgu59tg@#@#REKT edit: how do I (poundsign)REKT?@#@2014-04-17T04:16:04
t1_cgupenz@#@DAE /u/karmanaut is literally a karma-whore?@#@2014-04-17T17:45:36
t1_cgtu00r@#@I might be downboated for this, so please be gentle, but am I the only one around here who likes JENNIFER LAWRENCE!?@#@2014-04-16T21:15:49
t1_cgtnfiv@#@/r/emmawatsonjokes, you pleb!@#@2014-04-16T13:06:38
t1_cgtnp89@#@DAE UTH is OP?@#@2014-04-16T13:18:42
t1_cgtkjmb@#@/r/nicetryasshole@#@2014-04-16T11:11:44
t1_cgtm8qk@#@/r/Im14andthisisnicetryasshole@#@2014-04-16T12:16:40
t1_cgtkm06@#@Oh man, I thought that was going to be a subreddit devoted to people trying and failing to shove large objects into their buttholes.@#@2014-04-16T11:14:17
t1_cgtklon@#@[Everything after this post is a comment graveyard.](http://i.imgur.com/b2ZCV5a.gif)@#@2014-04-16T11:13:58
t1_cgtknd0@#@Nah, that's /r/atheism.@#@2014-04-16T11:15:42
t1_cgtoios@#@If I saw you on /r/outside I would Neil on Degrass in front of your feet good gent.@#@2014-04-16T13:57:48
t1_cgtpiby@#@"That shit is bananas. B-A-N-A-N-A-S." - TheAmazingAtheist@#@2014-04-16T14:51:21
t1_cgtmb99@#@Enjoy your gold!@#@2014-04-16T12:19:29
t1_cgtn99z@#@Fundie@#@2014-04-16T12:58:49
t1_cgtkvr4@#@RT!@#@2014-04-16T11:24:31
t1_cgtowgr@#@Why not both?@#@2014-04-16T14:17:34
t1_cgtpe0e@#@Hey. Stop punching fish@#@2014-04-16T14:44:30
t1_cgtt9o2@#@Rosa Parallel Parks is her full name.@#@2014-04-16T20:22:02
t1_cgudqzt@#@Bus@#@2014-04-17T08:56:52
t1_cgtkwd6@#@I actually lol'd at this. Have an upvote, good sir.@#@2014-04-16T11:25:12
t1_cgu1ch6@#@Racist cops.@#@2014-04-17T02:09:17
t1_cgtombg@#@Penis@#@2014-04-16T14:02:58
t1_cgtptz9@#@I wonder if she was allowed to ride the karma bus?@#@2014-04-16T15:10:57
t1_cgtkxzb@#@RIP mobile users@#@2014-04-16T11:26:55
t1_cgtkx6y@#@wtf Rountree1 I see you everywhere@#@2014-04-16T11:26:08
t1_cgtm2a5@#@Classic Rountree@#@2014-04-16T12:09:29
t1_cgtkx4x@#@MERRRR!@#@2014-04-16T11:26:05
t1_cgtu60h@#@Raw toast.@#@2014-04-16T21:26:34
t1_cgtocqg@#@!rtv@#@2014-04-16T13:49:32
t1_cgtt8jn@#@You're not allowed to retweet here@#@2014-04-16T20:19:25
t1_cgtmn5o@#@No my friend...I'm going to go down on...you. Edit: No homo, well...okay...maybe a little...just a little.@#@2014-04-16T12:32:47
t1_cgtkzdq@#@Rountree...more like....SexyAsHellTree.@#@2014-04-16T11:28:27
t1_cgtqqro@#@+/u/lenicemaymaymancointip @Rountree1 $420 & Steam gift game: Goat Simulator@#@2014-04-16T16:14:35
t1_cgtskcp@#@Off to /r/nocontext with you good sir!@#@2014-04-16T19:14:00
t1_cgtowxx@#@would you rather fight a duck sized hundred or a horse on a hundred ducks@#@2014-04-16T14:18:16
t1_cgtnyrl@#@Nice name@#@2014-04-16T13:31:09
t1_cgtkyj2@#@you're such a fiiiiirewoooork!@#@2014-04-16T11:27:29
t1_cgtonz2@#@/r/chimichangas@#@2014-04-16T14:05:19
t1_cgtl014@#@???????? ???????? ???????? RAISE YOUR MOTHER FUCKING CELL PHONES ???????? ???????? ????????@#@2014-04-16T11:29:08
t1_cgtqypr@#@**WARNING: PICTURE OF ASSHOLE BELOW**@#@2014-04-16T16:32:22
t1_cgttn4t@#@Is he firework? ....or is he dancer@#@2014-04-16T20:51:21
t1_cgtlpxq@#@[link for the lazy](http://www.photoforbeginners.com/users/2674/thm1024/1352129536_Firework2.jpg)@#@2014-04-16T11:56:08
t1_cgtpk3v@#@upvote because your name is funny@#@2014-04-16T14:54:14
t1_cgtlbxr@#@haha.@#@2014-04-16T11:41:38
t1_cgtldci@#@nvm they were in my neckbeard xD@#@2014-04-16T11:43:02
t1_cgtl4i6@#@This is literally true.@#@2014-04-16T11:33:50
t1_cgupfch@#@I had sex with your girlfriend.@#@2014-04-17T17:47:38
t1_cgtld8l@#@rekt by automod@#@2014-04-16T11:42:55
t1_cgtmwqn@#@[citation needed]@#@2014-04-16T12:43:54
t1_cgtondg@#@I leik turtles@#@2014-04-16T14:04:28
t1_cgtlm4c@#@happy pizza day!@#@2014-04-16T11:52:10
t1_cgupe8f@#@DAE WE'RE NOT STARTING THIS AGAIN!?!? XDDDD@#@2014-04-17T17:44:19
t1_cgtlffc@#@EVERY. THREAD.@#@2014-04-16T11:45:07
t1_cgtrrbe@#@<-- That right there is not a second level of knowledge, it's a sad fact you should be aware of as its the reason there is child labor. If you are aware of 1 but not 2 you should not contribute to discussion.@#@2014-04-16T17:46:56
t1_cgtm479@#@Jolly Rancher.@#@2014-04-16T12:11:39
t1_cgtuojl@#@? *S??????????????????H???????????????????????????A?????????????????????????M???????????????????????????E??????????????S????????????????????????????H????????????????????????????H?????????????A??????????????????????????M???????????????????????????????A?????????????????????????????A???????????????????????M???????????????????????E???????????????????????S????????????H????????????????????????????????????A??????????????????????M?????????????????????????????H?????????????A??????????????????????????M???????????????????????????????E??????????????????????????S?????????????????M??????????????????E???????????????????????????S?????????????????????????????H???????????????????A????????????????????????M??????????????E?????????????????????????????????S??????????????????????????????H????????????????????A???????????????????????M???????????????????????E???????????????????????S????????????H????????????????????????????????????A??????????????????????M?????????????????????????????E??????????????????????????S?????????????????H?????????????A??????????????????????????M???????????????????????????????E??????????????????????????????S?????????????????????????????????H????????????????????????????A???????????????????????????M????????????????????????????????????E???????????????????S?????????????????????H??????????????????????A?????????????????????????M???????????????????E??????????????????????????????????S??????????????????????????H?????????????????????????????????????A????????????????????????????M???????????????????????E?????????????????????????????S????????????????H??????????????????????????????????A?????????????????????????????????M??????????????????????E????????????????????????????> S??????????????????H???????????????????????????A?????????????????????????M???????????????????????????E??????????????S????????????????????????????H????????????????????????????A?????????????????????????????M??????????????????E???????????????????????????S?????????????????????????????H?????????????A??????????????????????????M???????????????????????????????H???????????????????A????????????????????????M??????????????E?????????????????????????????????S??????????????????????????????H????????????????????A???????????????????????M???????????????????????E???????????????????????S????????????H?????????????A??????????????????????????M???????????????????????????????H????????????????????????????????????H?????????????A??????????????????????????M???????????????????????????????A??????????????????????M?????????????????????????????E??????????????????????????S?????????????????H?????????????H?????????????A??????????????????????????M???????????????????????????????A??????????????????????????M???????????????????????????????E??????????????????????????????S?????????????????????????????????H????????????????????????????H?????????????A??????????????????????????M???????????????????????????????A???????????????????????????M????????????????????????????????????E???????????????????S?????????????????????H??????????????????????A?????????????????????????M???????????????????E??????????????????????????????????S??????????????????????????H?????????????????????????????????????A????????????????????????????M???????????????????????E?????????????????????????????S????????????????H??????????????????????????????????A?????????????????????????????????M??????????????????????E????????????????????????????@#@2014-04-16T21:56:27
t1_cgtpura@#@HAPPY CAKE DAY@#@2014-04-16T15:12:16
t1_cgtlk7n@#@Thanks for approving it m8.@#@2014-04-16T11:50:09
t1_cgtleht@#@EDIT: THX FOR THE GOLD xD@#@2014-04-16T11:44:11
t1_cgtqi0a@#@*END THE RATIONS!!*@#@2014-04-16T15:56:17
t1_cgtpe93@#@Colby 2012@#@2014-04-16T14:44:55
t1_cgtlg0x@#@/thread@#@2014-04-16T11:45:44
t1_cgtlrs0@#@EXCUSE ME, BUT I THINK YOUR ASS IS A BIT MORE IMPORTANT@#@2014-04-16T11:58:03
t1_cgtlile@#@Can confirm that this is *literally* the worst post to ever reach the front page. Edit: Source: I use the website reddit. Edit 2: For clarification reddit is a social networking website that I use. Edit: 3 grammer Edit 4: speling@#@2014-04-16T11:48:27
t1_cgtr21y@#@you're spleeing is WAY of@#@2014-04-16T16:40:08
t1_cgtu1b4@#@thanks for the gold stranger@#@2014-04-16T21:18:09
t1_cgtqbuz@#@This is a repost, I've seen posts just as worst as this before.@#@2014-04-16T15:43:58
t1_cgtnmpx@#@wtf is a reddit@#@2014-04-16T13:15:37
t1_cgtlmmw@#@No problem. You know I always got your back.@#@2014-04-16T11:52:41
t1_cgtlxjc@#@Oh cool, Pizza Hut&trade; is here! Yea, I'd like a large 4 topping pizza, I'll take uh, pepperoni, canadian bacon (sorry), sausage, and black olives (I'm not racist). Then can I get a side order of breadsticks with as much of that uh dipping sauce stuff, and about 3 two liter bottles of Mountain Dew&trade; That'll be delivery, it's a basement down on 8008 S. Titerson. And could you draw dickbutt on the box please? Thanks, Pizza Hut&trade; PS. Lol Papa Johns&trade;@#@2014-04-16T12:04:23
t1_cgts5f0@#@Now I'm curious, what did he say???@#@2014-04-16T18:27:31
t1_cgtmrsa@#@I thought this was going to be dickbutt.@#@2014-04-16T12:38:05
t1_cgtr2de@#@Lel. Why is that link purple?@#@2014-04-16T16:40:52
t1_cgto8u8@#@Risky click for the day AMIRITE?!@#@2014-04-16T13:44:25
t1_cgtnsbn@#@berating reddit contrarianism and cynicism@#@2014-04-16T13:22:42
t1_cgtm3yz@#@Colby 2016@#@2014-04-16T12:11:24
t1_cgtnal5@#@Nice *meme!*@#@2014-04-16T13:00:27
t1_cgtnziz@#@The exact thing groups of white girls say when they go to the bathroom... Hmmmmmm@#@2014-04-16T13:32:09
t1_cgtw0vq@#@I CANT I CANT I HAVE LOST THE ABILITY TO CAN@#@2014-04-16T22:59:10
t1_cgtmbap@#@EVEN LEVEL: CAN'T@#@2014-04-16T12:19:32
t1_cgtszlf@#@You work at arbies@#@2014-04-16T19:57:10
t1_cgtmzfv@#@GET YOUR SHIT TOGETHER, TYRRELL@#@2014-04-16T12:47:04
t1_cgtm2ea@#@/r/hailcorporate amirite@#@2014-04-16T12:09:36
t1_cgtop27@#@Edit: look what my pizza guy drew on the box!!@#@2014-04-16T14:06:57
t1_cgu4iwk@#@Now you have 69 comment karma@#@2014-04-17T03:51:40
t1_cgttp0p@#@SHILL@#@2014-04-16T20:55:02
t1_cgtnrxl@#@Mod of /r/pizzahutemployees here, let's tally that order up: 1 Large 4-topping pizza, an order of Breadsticks (+ let's say 6 Marinara sauces), plus three 2-liter sodas, and for delivery... Your total is gonna be $29.52. And should be delivered in no more than 40 minutes. *special instruction: "draw dickbutt on box" = can-do! Enjoy your pizza good sir!@#@2014-04-16T13:22:11
t1_cgto3n1@#@In b4 continue this thread ---->@#@2014-04-16T13:37:31
t1_cgtpdgy@#@I hope it doesn't leave without me!@#@2014-04-16T14:43:41
t1_cgtlzsd@#@Guys, can we please stay on topic? We're here to talk about LeNewMeMayMcSaganiffer Laurence, ok?@#@2014-04-16T12:06:49
t1_cgtm65p@#@can you believe these fundies?@#@2014-04-16T12:13:51
t1_cgtlzvq@#@##Incorrect. THIS is LITERALLY the worst post to ever reach the front page: [http://www.reddit.com/r/circlejerk/comments/l3tr0l3/the_worst_post/](http://www.redditenhancementsuite.com)@#@2014-04-16T12:06:55
t1_cgto1k4@#@wait are you *the* POLITE_ALLCAPS_GUY@#@2014-04-16T13:34:49
t1_cgtqi18@#@lol why is that link purple?@#@2014-04-16T15:56:21
t1_cgtm2sp@#@ikr!@#@2014-04-16T12:10:05
t1_cgtmfq4@#@no@#@2014-04-16T12:24:21
t1_cgto3j1@#@https://i.imgur.com/DzP8voO.gif@#@2014-04-16T13:37:22
t1_cgtnml7@#@*Bazinga*@#@2014-04-16T13:15:28
t1_cgtmkvv@#@classic abbreviation usage.@#@2014-04-16T12:30:12
t1_cgtvc0e@#@Never forget.@#@2014-04-16T22:29:03
t1_cgtp4gn@#@Kony 2012.@#@2014-04-16T14:29:28
t1_cgtmm9f@#@> "EXCUSE ME, BUT I THINK YOUR DOGS ASS IS A BIT MORE IMPORTANT" \- Colby, on the campaign trail.@#@2014-04-16T12:31:45
t1_cgtp85g@#@Happy Farmer.@#@2014-04-16T14:35:13
t1_cgtqt28@#@Gargh!@#@2014-04-16T16:19:22
t1_cgtou9d@#@Ctrl F "SAFE" Faith in humanity restored kind sir *tips fedora*@#@2014-04-16T14:14:21
t1_cgtmmk2@#@s are really good.@#@2014-04-16T12:32:05
t1_cgtm5aq@#@poor colby@#@2014-04-16T12:12:54
t1_cgto614@#@RIP in piece tom cruise@#@2014-04-16T13:40:40
t1_cgtnzvo@#@Beat's foodies.@#@2014-04-16T13:32:37
t1_cgtm7jj@#@first@#@2014-04-16T12:15:22
t1_cgupf9q@#@Your mom@#@2014-04-17T17:47:24
t1_cgtrsir@#@This is bullshit. You are simplifying a complex situation to the point of no longer adding anything usefull to the discussion.@#@2014-04-16T17:50:17
t1_cgtm8le@#@Dick joke, sarcasm, witty television reference, steal another person's joke, degrade another user. Edit: Inevitable thanks for the gold!@#@2014-04-16T12:16:30
t1_cgtmc5k@#@Shocked offense due to misunderstanding your comment!@#@2014-04-16T12:20:26
t1_cgto8hq@#@THIS.@#@2014-04-16T13:43:55
t1_cgtyqqi@#@Game of Thrones reference. Breaking Bad reference.@#@2014-04-17T00:41:28
t1_cgtmd94@#@jenniferlawrenceokay.jpg@#@2014-04-16T12:21:37
t1_cgtoe55@#@dae think hitler is misunderstood black man?@#@2014-04-16T13:51:31
t1_cgtowh4@#@would you rather fight a hundred ducks with a horse or a duck sized hundred@#@2014-04-16T14:17:35
t1_cgtmc8e@#@/r/Im14andthisisareplytovastamounts@#@2014-04-16T12:20:31
t1_cgtnxmz@#@Chugga chugga chugga@#@2014-04-16T13:29:37
t1_cgtobsq@#@This is kind of nerve racking to me posting a first text submission, I don't really know what to write or say. I have rediscovered reddit and have been reading religiously for the past few days, So far I have discovered I can laugh again, be almost shed to tears, I have similarities with people as I too am "lonely" etc. I also consider myself as friend-less as a few other people on here. I just want to share my knowledge or at least learn from you guys. I want to be a part of the community, I guess, and feel accepted by fellow redditors. So here I am, hopefully I will keep this trend going and perhaps post further submissions. I have never laughed so hard and giggled this much ever since rediscovering this wonderful place, because I feel there is a level of sophistication and intellect being portrayed here. Anyways thanks reddit. Hopefully I get one read from this..@#@2014-04-16T13:48:20
t1_cgtolxi@#@Mom's spaghetti@#@2014-04-16T14:02:24
t1_cgtner0@#@Last@#@2014-04-16T13:05:39
t1_cgto41c@#@https://i.imgur.com/DzP8voO.gif@#@2014-04-16T13:38:01
t1_cgu4wyy@#@Oh you...@#@2014-04-17T04:04:24
t1_cgtp1tw@#@Unstuctions inclear: Dick stuck in karma.@#@2014-04-16T14:25:32
t1_cgtwu7s@#@This thread has been linked to from elsewhere on reddit. - [/r/ShitCirclejerkSays] [&quot;Enjoy your gold!&quot; \[+56\]](http://np.reddit.com/r/ShitCirclejerkSays/comments/236luf/enjoy_your_gold_56/) *^I ^am ^a ^bot. ^Comments? ^Complaints? [^Send ^them ^to ^my ^inbox!](http://www.reddit.com/message/compose/?to=totes_meta_bot)*@#@2014-04-16T23:32:06
t1_cgtwu54@#@/r/ShitCirclejerkSays@#@2014-04-16T23:32:01
t1_cgtnfvo@#@SO: **DONE**@#@2014-04-16T13:07:06
t1_cgtsrt9@#@relevant gif which needs 10 seconds to load.@#@2014-04-16T19:35:59
t1_cgto6mk@#@Three paragraph explanation!@#@2014-04-16T13:41:25
t1_cgtmzod@#@/r/imactuallyonly11butpretendtoatleastbe14soicanfeelbetteraboutmyself@#@2014-04-16T12:47:20
t1_cgtmd4j@#@thanks for the gold@#@2014-04-16T12:21:29
t1_cgtshz6@#@How is this a jpg? lol XD@#@2014-04-16T19:06:42
t1_cgtoi37@#@?lassic ?irclejerk@#@2014-04-16T13:56:57
t1_cgtmyuu@#@smh@#@2014-04-16T12:46:22
t1_cgtmoa9@#@lol can you brush my hair, mom? my arms are broken.@#@2014-04-16T12:34:04
t1_cgtmz3j@#@not as good as this jolly rancher@#@2014-04-16T12:46:40
t1_cgtrrhs@#@Roll the balls around.@#@2014-04-16T17:47:21
t1_civphea@#@That gif... No joke, I orgasmed when I saw that. I know this is circlejerk and you probably think I'm making this up, but I honestly did. I was watching porn but I wasn't getting anywhere. I said "Fuck it, let's go on reddit." Then I saw that. Oh the beauty, truly the most beautifully beautiful thing of beauty@#@2014-07-13T06:34:07
t1_cgu6nvh@#@BROJOB HAHAHAHAHHAHAHA@#@2014-04-17T05:00:33
t1_cgtn01i@#@*tips neckbeard*@#@2014-04-16T12:47:44
t1_cgtmovb@#@HAHAHHAHHAHHAHAHHAHAHAHA No. You slut.@#@2014-04-16T12:34:43
t1_cgtmq2s@#@???????? raise your broken arms ????????@#@2014-04-16T12:36:08
t1_cgtn16o@#@do not buy me gold@#@2014-04-16T12:49:05
t1_cgtmqp2@#@I don't understand why everyone thinks this is the worst post, so I'm going to post a slightly longer comment that makes me seem intelligent but also edgy and contrarian. Hopefully, someone else will reply, then we'll act like we have informed opinions about a topic that we didn't even know existed 5 seconds ago. We'll argue absurd semantics, use similes that don't make sense and choose the longest possible words that we barely understand. It's almost a ceremonial dance, like some sort of internet mating ritual that always ends in mindless auto-fellatio. tl;dr I'm a genius but I'm lazy.@#@2014-04-16T12:36:49
t1_cgts7ez@#@Nazis@#@2014-04-16T18:33:37
t1_cgto2q2@#@KEWL LOL@#@2014-04-16T13:36:21
t1_cgto70s@#@I don't want to come across as an asshole(wait a minute, of course I do), but you're post is wrong and completely ill-informed. Based off my anecdotal evidence(I've seen a lot of posts), this one is by far the worst. Now, I'm going to end it with a personal jab - go eat a dick@#@2014-04-16T13:41:57
t1_cgtp3an@#@But aren't we all genius? - Plato ca. 420 B.C@#@2014-04-16T14:27:43
t1_cgtmt4e@#@Hijacking top comment to say >>>>This@#@2014-04-16T12:39:41
t1_cgtrt71@#@Hijacking? More like sandy hooking. EDIT: Thanks for gold! Now to find out what it does...@#@2014-04-16T17:52:14
t1_cgtn02u@#@Talk Dirty to me@#@2014-04-16T12:47:47
t1_cgtptmb@#@All their names sound alike to me too.@#@2014-04-16T15:10:18
t1_cgtq6yc@#@/r/Ibetyoulikethatyoufuckingretard@#@2014-04-16T15:34:28
t1_cgu0l4w@#@> imactuallyonly11butpretendtoatleastbe14soicanfeelbetteraboutmyself UNIDAN IS FAMOUS https://www.google.com.au/search?q=imactuallyonly11butpretendtoatleastbe14soicanfeelbetteraboutmyself@#@2014-04-17T01:44:01
t1_cgtnbjw@#@Nice *meme!*@#@2014-04-16T13:01:36
t1_cgtopza@#@*222222 Ccchhhaaaiiinnzzzz*@#@2014-04-16T14:08:16
t1_cgtvu6c@#@*bass & trumpet*@#@2014-04-16T22:51:22
t1_cgtn3jd@#@there's mud all over my face@#@2014-04-16T12:51:56
t1_cgto3at@#@K@#@2014-04-16T13:37:04
t1_cgto9c6@#@Enjoy le gold!!!!!!!! xD!!!!!!!!!!!!!!@#@2014-04-16T13:45:04
t1_cgtn4k8@#@Fuck Goldmine, DATS SEXY.@#@2014-04-16T12:53:12
t1_cgtn5yh@#@lol paging /u/_vargas_@#@2014-04-16T12:54:46
t1_cgtoswh@#@/u/_vargas_ plz respond@#@2014-04-16T14:12:25
t1_cgtncfb@#@This is bullshit. You are simplifying a complex situation to the point of no longer adding anything usefull to the discussion.@#@2014-04-16T13:02:42
t1_cgtookl@#@[10]@#@2014-04-16T14:06:16
t1_cgu10kr@#@Relevant username.@#@2014-04-17T01:58:18
t1_cgtpi0b@#@Did you found it yet?@#@2014-04-16T14:50:52
t1_cgupf7g@#@DAE I hope you find it again? XDD@#@2014-04-17T17:47:13
t1_cgtn7p3@#@*&#3232;_&#3232;* ^*&#3232;_&#3232;* ^^*&#3232;_&#3232;* ^^^*&#3232;_&#3232;* ^^^^*&#3232;_&#3232;* ^^^^^*&#3232;_&#3232;* ^^^^^^*&#3232;_&#3232;* ^^^^^^^*&#3232;_&#3232;*@#@2014-04-16T12:56:58
t1_cgtneb5@#@http://i.imgur.com/cyjpeVd.gif@#@2014-04-16T13:05:03
t1_cgtnpsb@#@Le friendzoned!@#@2014-04-16T13:19:27
t1_cgtqxtb@#@I thought his comment was quite intelligent, good sir.@#@2014-04-16T16:30:14
t1_cgto0xb@#@/r/Im14andthisisdeep@#@2014-04-16T13:34:01
t1_cgtnot7@#@GFY link: [gfycat.com/UntriedDizzyCondor](http://gfycat.com/UntriedDizzyCondor) --- ^(GIF size: 1.16 MiB) ^| ^(GFY size:199.02 kiB) ^| [^(~ About)](http://www.reddit.com/r/gfycat/comments/1u5df2/made_a_gfy_bot_for_reddit_in_ruby_meet_ugfy_bot/)@#@2014-04-16T13:18:12
t1_cgtoqij@#@Third* Fixed That; For You@#@2014-04-16T14:09:01
t1_cgtoj5t@#@first@#@2014-04-16T13:58:31
t1_cgto4gj@#@Second last@#@2014-04-16T13:38:34
t1_cgtongo@#@Lastest Edit: lastestest@#@2014-04-16T14:04:35
t1_cgtsqcv@#@/gwstories@#@2014-04-16T19:31:47
t1_cgtx13n@#@All links are purple.@#@2014-04-16T23:39:27
t1_cgtr5fc@#@/r/pcmasterrace, you peasants!@#@2014-04-16T16:48:33
t1_cgtpr75@#@DONE LEVEL: ***SO***@#@2014-04-16T15:06:06
t1_cgtnot9@#@/r/2momjokes you privileged cis shitlord@#@2014-04-16T13:18:12
t1_cgtnh5i@#@Here is a word cloud of all of the comments in this thread: http://i.imgur.com/OYbNf6j.png ***** [^source ^code](https://github.com/WinneonSword/makeswordclouds) ^| [^contact ^developer](http://reddit.com/user/WinneonSword)@#@2014-04-16T13:08:40
t1_cgtw0ak@#@3232 amp@#@2014-04-16T22:58:28
t1_cgtowmq@#@This.@#@2014-04-16T14:17:48
t1_cgtpddm@#@Nice word butt@#@2014-04-16T14:43:32
t1_cgtokfg@#@OMG, deleted mods karma! This proves that mods are deleting NSA leakers for karma, we can ban the mods!@#@2014-04-16T14:00:19
t1_cgtnz9m@#@ZIMBABWE@#@2014-04-16T13:31:48
t1_cgtodt5@#@pen island@#@2014-04-16T13:51:03
t1_cgtt1rz@#@a lommy@#@2014-04-16T20:02:41
t1_cgto18k@#@eddit /?r?d?t/,[3] stylized as reddit,[4] is an entertainment, social networking service and news website where registered community members can submit content, such as text posts or direct links. Only registered users can then vote submissions "up" or "down" to organize the posts and determine their position on the site's pages. Content entries are organized by areas of interest called "subreddits". Reddit was founded by Steve Huffman and Alexis Ohanian. It was acquired by Cond? Nast Publications in October 2006 and became a direct subsidiary of Cond? Nast's parent company, Advance Publications in September 2011. As of August 2012, Reddit operates as an independent entity, although Advance is still its largest shareholder.[5] Reddit is based in San Francisco, California. Contents [hide] 1 Overview 1.1 Site 1.2 Users 2 Subreddits 3 History 4 Technology 5 Demographics 6 Community and culture 6.1 Philanthropic efforts 6.2 The Reddit Effect 6.3 "Restoring Truthiness" campaign 6.4 Controversies involving Reddit 7 Awards 8 See also 9 Notes and references 10 External links@#@2014-04-16T13:34:24
t1_cgto8y1@#@who is billy@#@2014-04-16T13:44:33
t1_cgtook5@#@Its something redditers do@#@2014-04-16T14:06:15
t1_cgto4vh@#@https://i.imgur.com/DzP8voO.gif@#@2014-04-16T13:39:08
t1_cgtoiyz@#@not an 4chan so its not as good as our mighty /b/ overlords@#@2014-04-16T13:58:15
t1_cgtqmy5@#@You don't have gold.. this proves the admins are fascist.@#@2014-04-16T16:06:31
t1_cgtnowo@#@DAE think that /u/thediggitydank is hot?@#@2014-04-16T13:18:20
t1_cgto22o@#@lol I just checked this user hasn't posted to GW@#@2014-04-16T13:35:28
t1_cgto3a1@#@wh...wh..why is that link PURPLLLEEE!?!?! ?\_(?)_/? ?\_(?)_/? ?\_(?)_/??\_(?)_/? ?\_(?)_/? ?\_(?)_/? ?\_(?)_/? ?\_(?)_/? ?\_(?)_/? ?\_(?)_/? ?\_(?)_/? ?\_(?)_/? ?\_(?)_/? ?\_(?)_/? ?\_(?)_/?@#@2014-04-16T13:37:03
t1_cgtnuk8@#@hi pondreezy@#@2014-04-16T13:25:38
t1_cgtnpn2@#@I have no idea what's going on.@#@2014-04-16T13:19:15
t1_cgtocai@#@I disagree@#@2014-04-16T13:48:57
t1_cgtnrin@#@Words words words words words words words words words words words words words words words words words words words words words words words words words words words words words words words words words words words words words words words words words words words words words words words words words words words words words words words words words words words words words words words words words words words words words words words words words words words words words words words words words words words words words words words words words words words words words words words words words words words words words words words words words words words words words words words words words words words words words words words words words words words words words words words words words words words words words words words words words words words words words words words words words words words words words words words words words words words words words words words words words words words words words words words words words words words words words words words words words words words words words words words words words words words words words words words words words words words words words words words words words words words words words words words words words words words words words words words words words words words words words words words words words words words words words words words words words words words words words words words words words words words words words words words words words words words Tl;dr more words@#@2014-04-16T13:21:42
t1_cgtoxjv@#@Saved for later.@#@2014-04-16T14:19:10
t1_cgupfg2@#@k@#@2014-04-17T17:47:57
t1_cgtnxzh@#@http://i.imgur.com/b9GoEJy.gif@#@2014-04-16T13:30:06
t1_cguk0jd@#@defensive posturing against beratement@#@2014-04-17T12:37:04
t1_cgtpi39@#@Sloppy and immature response questioning mothers promiscuous nature with bad grammar and spealing adding nothing to the conversation. TL;DR Wah go back and read it because wah@#@2014-04-16T14:51:00
t1_cgtpzc4@#@Sorry for going against the hivemind guise!?@#@2014-04-16T15:20:18
t1_cgtojz7@#@le@#@2014-04-16T13:59:44
t1_cgtoc5d@#@BURRito@#@2014-04-16T13:48:46
t1_cgtnx16@#@tits@#@2014-04-16T13:28:50
t1_cgto00v@#@(???)@#@2014-04-16T13:32:49
t1_cgto839@#@GFY link: [gfycat.com/EverlastingUnderstatedFrog](http://gfycat.com/EverlastingUnderstatedFrog) --- ^(GIF size: 9.97 MiB) ^| ^(GFY size:289.33 kiB) ^| [^(~ About)](http://www.reddit.com/r/gfycat/comments/1u5df2/made_a_gfy_bot_for_reddit_in_ruby_meet_ugfy_bot/)@#@2014-04-16T13:43:22
t1_cgto7we@#@GFY link: [gfycat.com/NervousTidyBrant](http://gfycat.com/NervousTidyBrant) --- ^(GIF size: 9.80 MiB) ^| ^(GFY size:660.83 kiB) ^| [^(~ About)](http://www.reddit.com/r/gfycat/comments/1u5df2/made_a_gfy_bot_for_reddit_in_ruby_meet_ugfy_bot/)@#@2014-04-16T13:43:06
t1_cgto2p9@#@I have a fish you can punch [*sly wink*]@#@2014-04-16T13:36:20
t1_cgto7lb@#@GFY link: [gfycat.com/ThirdInstructiveGrayfox](http://gfycat.com/ThirdInstructiveGrayfox) --- ^(GIF size: 9.96 MiB) ^| ^(GFY size:236.43 kiB) ^| [^(~ About)](http://www.reddit.com/r/gfycat/comments/1u5df2/made_a_gfy_bot_for_reddit_in_ruby_meet_ugfy_bot/)@#@2014-04-16T13:42:40
t1_cgtovtd@#@o@#@2014-04-16T14:16:40
t1_cgtru3j@#@best bot on the site amirite@#@2014-04-16T17:54:41
t1_cgtys78@#@k@#@2014-04-17T00:42:53
t1_cgtti4g@#@Lel@#@2014-04-16T20:40:47
t1_cgtzm3g@#@This is bullshit - you're oversimplifying a complex situation to the point of no longer adding anything useful to the discussion.@#@2014-04-17T01:11:26
t1_cgtp062@#@Does he even shift?@#@2014-04-16T14:23:07
t1_cgto3pf@#@I did NAZI that coming!@#@2014-04-16T13:37:36
t1_cgto787@#@GFY link: [gfycat.com/EdibleWaryHornedviper](http://gfycat.com/EdibleWaryHornedviper) --- ^(GIF size: 8.85 MiB) ^| ^(GFY size:1.21 MiB) ^| [^(~ About)](http://www.reddit.com/r/gfycat/comments/1u5df2/made_a_gfy_bot_for_reddit_in_ruby_meet_ugfy_bot/)@#@2014-04-16T13:42:12
t1_cgtvzf7@#@You have to add a backslash for fock you.@#@2014-04-16T22:57:28
t1_cgu27af@#@POTASSIUM XD@#@2014-04-17T02:36:50
t1_cgtobwf@#@GFY link: [gfycat.com/BlondFrighteningIndianspinyloach](http://gfycat.com/BlondFrighteningIndianspinyloach) --- ^(GIF size: 9.88 MiB) ^| ^(GFY size:376.38 kiB) ^| [^(~ About)](http://www.reddit.com/r/gfycat/comments/1u5df2/made_a_gfy_bot_for_reddit_in_ruby_meet_ugfy_bot/)@#@2014-04-16T13:48:27
t1_cgtoi94@#@4th last edit shit@#@2014-04-16T13:57:11
t1_cgtoboy@#@GFY link: [gfycat.com/BlondFrighteningIndianspinyloach](http://gfycat.com/BlondFrighteningIndianspinyloach) --- ^(GIF size: 9.88 MiB) ^| ^(GFY size:376.38 kiB) ^| [^(~ About)](http://www.reddit.com/r/gfycat/comments/1u5df2/made_a_gfy_bot_for_reddit_in_ruby_meet_ugfy_bot/)@#@2014-04-16T13:48:11
t1_cgts7ip@#@Sentence nitpicking minor part of explanation and apologizing for doing so, including "I hate to be that guy."@#@2014-04-16T18:33:55
t1_cgtqvbf@#@One sentence nullification of explanation!@#@2014-04-16T16:24:23
t1_cgu70yt@#@/r/bestof'd@#@2014-04-17T05:12:10
t1_cgtqv8y@#@Reply starting with "As a mother, I..."@#@2014-04-16T16:24:13
t1_cgtp389@#@#include <iostream> using namespace std; int main(void) { cout << "I'm also suddenly an expert in programming so I'm going to type my replies as if they were part of a program so I can look more intelligent than the rest of you" << endl; return 0; }@#@2014-04-16T14:27:37
t1_cgtp6bw@#@This guy actually bought him gold!!!!!!!! Wowowowowow I wish I knew how to read.@#@2014-04-16T14:32:20
t1_cgu5jfl@#@/r/narutojokes@#@2014-04-17T04:24:39
t1_cgu5oqm@#@This thread has been linked to from elsewhere on reddit. - [/r/bestofcirclejerk] [Our brave, euphoric /u/tehlolredditor disagrees with people](http://np.reddit.com/r/bestofcirclejerk/comments/237f5y/our_brave_euphoric_utehlolredditor_disagrees_with/) *^I ^am ^a ^bot. ^Comments? ^Complaints? [^Send ^them ^to ^my ^inbox!](http://www.reddit.com/message/compose/?to=totes_meta_bot)*@#@2014-04-17T04:29:21
t1_cgu5k4x@#@/bestof'd@#@2014-04-17T04:25:16
t1_cgtp5ol@#@5last6me@#@2014-04-16T14:31:19
t1_cgtpihw@#@Infinite last.@#@2014-04-16T14:51:37
t1_cgtqr1q@#@Read: two hundred twenty two thousand two hundred and twenty two Ccchhhaaaiiinnzzzz@#@2014-04-16T16:15:10
t1_cgtvowe@#@*Asses, asses everywhere* *I take the front on one condition* *Spread those cheeks out ever wider* *Sliding in with just one mission* *Perhaps ladies in the future* *Are more devious in the rut* *Oh how I wish twas more than some* *Who liked to take it up the butt.*@#@2014-04-16T22:45:05
t1_cgtr0n0@#@Psh, I was drawing about jolly rancher Doritos on my cave wall before the wheel was invented.@#@2014-04-16T16:36:47
t1_cgtozm7@#@OP PLZ LOLOLOL@#@2014-04-16T14:22:18
t1_cgtotg7@#@Posting for the free karma@#@2014-04-16T14:13:11
t1_cgtu6ns@#@bi wan@#@2014-04-16T21:27:42
t1_cgtp6gv@#@You're oversimplifying a complex situation.@#@2014-04-16T14:32:34
t1_cgtvs47@#@Hey fugo, come back. ***The weak will feed the stronger,*** ***Acquiesce and raise your donger.*** ***A circlejerk of turgid size*** ***to blind the garnered prying eyes;*** ***Top lels shall trick*** ***those 'on the quick'.*** ***We jerkers will eliminate*** ***and watch the banter sublimate,*** ***from drama spreading wall to wall*** ***WE LIGHT THE DEAD HORSE WICK.***@#@2014-04-16T22:48:55
t1_cgtss28@#@In this moment, i am enlightened@#@2014-04-16T19:36:41
t1_cgtpoxv@#@It's the edge of the known universe.@#@2014-04-16T15:02:13
t1_cgu40ba@#@STILL WAITING HAHA *SKELETOB PICTURE* LE HUE UEHUE UEHEUEHEU Edit:Upfedoras already? Edit 2: okay for the 7 people replying, yes skeleton is spelt as skeleton not SKELETOB! Hahahhahahahhahahhahahahahahahhahahahha reddit@#@2014-04-17T03:34:54
t1_cgtp0md@#@WE DID IT REDDIT!@#@2014-04-16T14:23:48
t1_cgtp0u8@#@KONY 2012@#@2014-04-16T14:24:08
t1_cgtpylv@#@I voted for his reelection@#@2014-04-16T15:19:00
t1_cgttdsn@#@has it been two years already? sheeeeeeeeeit.@#@2014-04-16T20:31:21
t1_cgtp25c@#@***[Reddit Intensifies]***@#@2014-04-16T14:26:01
t1_cgtpy9j@#@Wow so much intensifies Shamwow@#@2014-04-16T15:18:24
t1_cgtv12f@#@This happens? I haven't seen enough reddit yet@#@2014-04-16T22:14:24
t1_cgtyuc5@#@cout<<gold;@#@2014-04-17T00:44:56
t1_cguobz9@#@Did you know that programming computers is the hardest, most mentally challenging job in the world? And that a rare economic fluke that makes programmers economic worth relatively more than other trades also makes us more valuable as *humans*, as well? Did you know that programmers operate in a pure, unadulterated meritocracy where only competence matters - not where you went to school, who you know, and which buzzwords you looked up the night of an interview and whose github you stalked to learn talking points? It's all true! We are the greatest, smartest humans that have ever lived. It's nice to meet a fellow genius.@#@2014-04-17T16:10:15
t1_cgtu3r9@#@If you start with void main then you won't have to return 0. \#rekt PREEDIT: thanks for the gold, stranger!@#@2014-04-16T21:22:34
t1_cgtp47u@#@hunter2@#@2014-04-16T14:29:04
t1_cgtp4cp@#@Comment to save.@#@2014-04-16T14:29:18
t1_cgtquro@#@> 5last6**LE** EDIT: trilby@#@2014-04-16T16:23:09
t1_cgtqfxj@#@you're overcomplifying a simplex situation@#@2014-04-16T15:52:06
t1_cgtp8f4@#@I'm here for my free karma. I heard there was gonna be free karma.@#@2014-04-16T14:35:37
t1_cgtpxlc@#@Oh man! Ha what a real knee slapper! I hope that guy that draws stuff draws your comment. That would be the best thing eveeerrrr@#@2014-04-16T15:17:16
t1_cgtpe9f@#@Came for the Karma, left laughing my ass off.@#@2014-04-16T14:44:56
t1_cgtpi59@#@I upvoted this.@#@2014-04-16T14:51:05
t1_cgtpl2m@#@I was there.@#@2014-04-16T14:55:48
t1_cgtpl4o@#@But there's no [faces of atheism](http://i.imgur.com/s9bS1.jpg) **OR** [dog shit](http://www.reddit.com/r/pics/comments/uazhi/so_my_dog_ate_a_box_of_crayons/) here@#@2014-04-16T14:55:54
t1_cgtpnq8@#@I love being a part of this steaming pile of shit. please change, reddit? <3@#@2014-04-16T15:00:13
t1_cgts34x@#@3edgy5universe@#@2014-04-16T18:20:45
t1_cgu6fh5@#@SO DONE: <b>LEVEL</b>@#@2014-04-17T04:53:09
t1_cgtpsx8@#@I was involved ! :')@#@2014-04-16T15:09:01
t1_cgtptwh@#@Check your arms edit: thanks for the gold@#@2014-04-16T15:10:49
t1_cgtpz66@#@Aw gee thanks man! That means so much to me! And I know right? That would be so cool!@#@2014-04-16T15:20:00
t1_cgtpylc@#@Sup CNN@#@2014-04-16T15:18:59
t1_cgtrhwc@#@sup NSA@#@2014-04-16T17:21:01
t1_cgtpzeb@#@I missed the Tpp finale but I won't miss this!@#@2014-04-16T15:20:26
t1_cgtpzof@#@This is the front carriage of the karma train, hop on board CHOO CHOO@#@2014-04-16T15:20:57
t1_cgtq046@#@KARMA! KARMA! KARMA!@#@2014-04-16T15:21:43
t1_cgtq22u@#@DAE Karmanaut == Unidan?? /r/conspiracy much, #amirite /r/subredditsashashtags@#@2014-04-16T15:25:22
t1_cgtq69z@#@Commenting to save.@#@2014-04-16T15:33:15
t1_cgtq6c5@#@I was there!@#@2014-04-16T15:33:21
t1_cgtq6m3@#@im drunk and reddit is drunk. we are drunk. drunk drank drenk drink dronk Thanks for the gold? gimme dat bronze cause last place is the best place.@#@2014-04-16T15:33:51
t1_cgtrhqr@#@drunk u go home ktcxs@#@2014-04-16T17:20:36
t1_cgtq6u2@#@Le.@#@2014-04-16T15:34:16
t1_cgupfke@#@needs more gemz. xD@#@2014-04-17T17:48:18
t1_cgtrhn2@#@lleleleleleele@#@2014-04-16T17:20:21
t1_cgtxl8b@#@/r/im14@#@2014-04-17T00:00:22
t1_cgtq8vn@#@Who said anal beads?@#@2014-04-16T15:38:12
t1_cgtrhlh@#@i did. no lube. uhh ok@#@2014-04-16T17:20:12
t1_cgtq94w@#@Commenting to get in on this shit@#@2014-04-16T15:38:41
t1_cgtqack@#@posting in a historic thread@#@2014-04-16T15:41:02
t1_cgtrhi5@#@me2 XDXDXD@#@2014-04-16T17:19:58
t1_cgtznk0@#@*this FTFY@#@2014-04-17T01:12:45
t1_cgtqaj7@#@Congrats on your brilliant post, BAA@#@2014-04-16T15:41:24
t1_cgtqav4@#@FUKC YEAH@#@2014-04-16T15:42:00
t1_cgtqbfn@#@WHAT IF I DON'T WANT TO@#@2014-04-16T15:43:06
t1_cgtrhg4@#@you can now@#@2014-04-16T17:19:48
t1_cgtqc0y@#@Swag@#@2014-04-16T15:44:18
t1_cgtrher@#@hotdogs was a great guy@#@2014-04-16T17:19:40
t1_cgtrhbl@#@ok@#@2014-04-16T17:19:28
t1_cgtqcy1@#@Tom Cruise@#@2014-04-16T15:46:09
t1_cgtrh9t@#@Tom Allen@#@2014-04-16T17:19:21
t1_cgtqd4e@#@Figuratively*@#@2014-04-16T15:46:30
t1_cgtqnzh@#@No u@#@2014-04-16T16:08:44
t1_cgtrh0c@#@kktzs bai@#@2014-04-16T17:18:38
t1_cgtqt0h@#@LOLSAIL!!! <3@#@2014-04-16T16:19:15
t1_cgts7z6@#@So brave.@#@2014-04-16T18:35:21
t1_cgtrz1p@#@I am a feminist and I am offended, OP.@#@2014-04-16T18:08:49
t1_cgtuxwf@#@Dae else hate "as a mother I"?@#@2014-04-16T22:10:02
t1_cgtrf6b@#@You're overcomplicating a simple situation to the point where it's actually relevant and you're adding to the conversation@#@2014-04-16T17:13:42
t1_cgtqz8l@#@There's a picture of you below?@#@2014-04-16T16:33:33
t1_cgtr1c9@#@SPLOOSH!@#@2014-04-16T16:38:30
t1_cgtr1yd@#@/r/thathappened@#@2014-04-16T16:39:53
t1_cgtr20e@#@I only like this for OP's username.@#@2014-04-16T16:40:02
t1_cgtr4by@#@Okay@#@2014-04-16T16:45:46
t1_cgtrgsy@#@Si@#@2014-04-16T17:18:05
t1_cgtr4z5@#@I just skimmed through all this bullshit. I deserve gold because i can type sentences correctly.@#@2014-04-16T16:47:24
t1_cgtrgrt@#@no one cares@#@2014-04-16T17:18:00
t1_cgtul3e@#@Thanx for the gold. XD@#@2014-04-16T21:51:01
t1_cgts2k5@#@/r/kcmasterpiece , you ninny!@#@2014-04-16T18:18:58
t1_cgtr6d9@#@Its like a magic!@#@2014-04-16T16:50:46
t1_cgtrgor@#@gay@#@2014-04-16T17:17:46
t1_cgtr95c@#@edit: edit 2:@#@2014-04-16T16:57:43
t1_cgtujnc@#@edit 3: thanks for the gold kind strangers@#@2014-04-16T21:48:48
t1_cgtrgip@#@EDIT dis heheeeh cool ee@#@2014-04-16T17:17:21
t1_cgtr9m9@#@Tl;dr@#@2014-04-16T16:58:52
t1_cgtrgg2@#@u expected me to read all that niggaa?@#@2014-04-16T17:17:11
t1_cgtrbao@#@commenting to save for later@#@2014-04-16T17:03:22
t1_cgtzi2y@#@RES@#@2014-04-17T01:07:36
t1_cgtrgc6@#@heheheeh@#@2014-04-16T17:16:53
t1_cgtrch0@#@Nope Chuck Testa@#@2014-04-16T17:06:32
t1_cgtrga5@#@Thanks Obama!@#@2014-04-16T17:16:44
t1_cgtrd2m@#@Does reverse psychology work? Don't upvote this comment.@#@2014-04-16T17:08:07
t1_cgtrg7d@#@2late@#@2014-04-16T17:16:33
t1_cgtrd64@#@Im sick of every mother fucker on reddit right now, and in this thread. Fuck you all, i'm going to somewhere else.@#@2014-04-16T17:08:22
t1_cgtum74@#@This.@#@2014-04-16T21:52:47
t1_cgtrg5k@#@cya fggt@#@2014-04-16T17:16:25
t1_cgtrdv7@#@I came.@#@2014-04-16T17:10:15
t1_cgtrg3a@#@me2 LOL@#@2014-04-16T17:16:13
t1_cgtrdy6@#@it's my cakeday@#@2014-04-16T17:10:29
t1_cgtrfzd@#@Eat all the cakes. Have a good one.@#@2014-04-16T17:15:54
t1_cgtrfed@#@jajajaja@#@2014-04-16T17:14:17
t1_cgtrgf5@#@You're welcome!@#@2014-04-16T17:17:06
t1_cgtrge0@#@http://i.imgur.com/J8K3L.jpg@#@2014-04-16T17:17:00
t1_cgts5zx@#@/r/obamajokes@#@2014-04-16T18:29:16
t1_cgud1rt@#@Tl;dr@#@2014-04-17T08:32:04
t1_cgtryjg@#@/u/grapistx2014 I've given you like a bajillion karma, you owe me a blowjob now.@#@2014-04-16T18:07:25
t1_cgtri1g@#@Dogecoin TO THE MOONNNNNN@#@2014-04-16T17:21:27
t1_cgtw5bw@#@> sandy hooking. You actually believe that shit you government shill?@#@2014-04-16T23:04:20
t1_cgu9thj@#@ok. gotta be quick tough@#@2014-04-17T06:40:08
t1_cgtsbgz@#@ummmm.... le redpill is that way -> -> (amirite GUYZZZ? XD XD XD) EDIT: downfedoras? EDIT2: the whiteknighting in this thread disgusts me EDIT3: euphoria@#@2014-04-16T18:46:10
t1_cgtsnkl@#@Did you know the plastic things on the end of shoelaces are called aglets?@#@2014-04-16T19:23:44
t1_cgtspk6@#@"Those who don't learn from history are doomed to repost it"- Morgan deGrasse Freeman@#@2014-04-16T19:29:31
t1_cgtv17x@#@>int main(void) Main's return type is int. Check yo self before you #rekt yo self.@#@2014-04-16T22:14:36
t1_cgu1fi8@#@What is your favourite race and why is it white people you cis shit?@#@2014-04-17T02:12:03
t1_cgu04wg@#@That@#@2014-04-17T01:28:50
t1_cgtz7ea@#@Lol, I get that reference!!! XD@#@2014-04-17T00:57:16
t1_cgtxuye@#@I am a feminist and I am offended, OP.@#@2014-04-17T00:10:21
t1_cgtwj61@#@thatsthejoke.jpg@#@2014-04-16T23:19:59
t1_cgtvman@#@You're overcomplicating a simple situation to the point where it's actually relevant and you're adding to the conversation@#@2014-04-16T22:42:02
t1_cgtzm1d@#@I'm no programmer, but it should be fairly easy for the admins to allow the deleted comment to appear and just delete the user name@#@2014-04-17T01:11:23
t1_cgu566w@#@Thanks for the shout-out! Edit: spelling Edit 2 - Fuck it, I'm leaving it!@#@2014-04-17T04:12:49
t1_cgu5amc@#@like this: \#REKT@#@2014-04-17T04:16:47
t1_cgu811b@#@RIP your inbox, lewl@#@2014-04-17T05:43:32
t1_cgujfty@#@Misogyny? you must be STEM alpha male.@#@2014-04-17T12:15:26
t1_cgur8ny@#@Half Life 3 confirmed.@#@2014-04-17T20:47:04
t1_cgur3g4@#@This is bullshit. You're oversimplifying a complex situation to the point of no longer adding anything useful to the discussion.@#@2014-04-17T20:35:53
t1_cgvck3h@#@LOL I love karma le XDXDXDXDD@#@2014-04-18T09:51:30
t1_cguqz9h@#@So brave.@#@2014-04-17T20:26:30
t1_cguqvyb@#@Edit:Thanks for the gold kind stranger@#@2014-04-17T20:18:28
t1_cguqtq6@#@You're overcomplicating a simple situation to the point where it's actually relevant and you're adding to the conversation@#@2014-04-17T20:12:49
t1_cgvckwa@#@LOL I love karma le XDXDXDXDD@#@2014-04-18T09:52:21
