Export begins...
Generated output file 'C:\Users\Sam\Documents\HKUST\COMP4641\Project\circlejerk\387293835.html' for 'Comment  (t1_cgtjm8o)'.
Generated output file 'C:\Users\Sam\Documents\HKUST\COMP4641\Project\circlejerk\387293836.html' for 'Comment'.
Generated output file 'C:\Users\Sam\Documents\HKUST\COMP4641\Project\circlejerk\387293837.html' for 'Created'.
Generated output file 'C:\Users\Sam\Documents\HKUST\COMP4641\Project\circlejerk\387293838.html' for 'English language'.
Generated output file 'C:\Users\Sam\Documents\HKUST\COMP4641\Project\circlejerk\387293839.html' for 'Downvotes'.
Generated output file 'C:\Users\Sam\Documents\HKUST\COMP4641\Project\circlejerk\387293840.html' for 'Body'.
Generated output file 'C:\Users\Sam\Documents\HKUST\COMP4641\Project\circlejerk\387293841.html' for 'Upvotes'.
Generated output file 'C:\Users\Sam\Documents\HKUST\COMP4641\Project\circlejerk\387293842.html' for 'Parent-Child'.
Generated output file 'C:\Users\Sam\Documents\HKUST\COMP4641\Project\circlejerk\387293864.html' for 'Reddit'.
Generated output file 'C:\Users\Sam\Documents\HKUST\COMP4641\Project\circlejerk\387293865.html' for 'Child'.
Generated output file 'C:\Users\Sam\Documents\HKUST\COMP4641\Project\circlejerk\387293866.html' for 'Comment  (t1_cgtlcuy)'.
Generated output file 'C:\Users\Sam\Documents\HKUST\COMP4641\Project\circlejerk\387293867.html' for 'Parent'.
Generated output file 'C:\Users\Sam\Documents\HKUST\COMP4641\Project\circlejerk\387293868.html' for 'Comment  (t1_cgtnp4g)'.
Generated output file 'C:\Users\Sam\Documents\HKUST\COMP4641\Project\circlejerk\387293869.html' for 'Comment  (t1_cgtouxu)'.
Generated output file 'C:\Users\Sam\Documents\HKUST\COMP4641\Project\circlejerk\387293870.html' for 'Comment  (t1_cgtnzhb)'.
Generated output file 'C:\Users\Sam\Documents\HKUST\COMP4641\Project\circlejerk\387293871.html' for 'Comment  (t1_cgto8wu)'.
Generated output file 'C:\Users\Sam\Documents\HKUST\COMP4641\Project\circlejerk\387293872.html' for 'Comment  (t1_cgtp4s5)'.
Generated output file 'C:\Users\Sam\Documents\HKUST\COMP4641\Project\circlejerk\387293873.html' for 'Comment  (t1_cgtly28)'.
Generated output file 'C:\Users\Sam\Documents\HKUST\COMP4641\Project\circlejerk\387293895.html' for 'Comment  (t1_cgtozqr)'.
Generated output file 'C:\Users\Sam\Documents\HKUST\COMP4641\Project\circlejerk\387293896.html' for 'Comment  (t1_cgtnznj)'.
Generated output file 'C:\Users\Sam\Documents\HKUST\COMP4641\Project\circlejerk\387293897.html' for 'Comment  (t1_cgtltek)'.
Generated output file 'C:\Users\Sam\Documents\HKUST\COMP4641\Project\circlejerk\387293898.html' for 'Comment  (t1_cgtp5fk)'.
Generated output file 'C:\Users\Sam\Documents\HKUST\COMP4641\Project\circlejerk\387293899.html' for 'Comment  (t1_cgtlsue)'.
Generated output file 'C:\Users\Sam\Documents\HKUST\COMP4641\Project\circlejerk\387293900.html' for 'Comment  (t1_cgtk1qa)'.
Generated output file 'C:\Users\Sam\Documents\HKUST\COMP4641\Project\circlejerk\387293901.html' for 'Comment  (t1_cgtnbi9)'.
Generated output file 'C:\Users\Sam\Documents\HKUST\COMP4641\Project\circlejerk\387293902.html' for 'Be a part of reddit history. This is literally the worst post that's ever reached the front page. (t3_2358r0)'.
Generated output file 'C:\Users\Sam\Documents\HKUST\COMP4641\Project\circlejerk\387293903.html' for 'Link'.
Generated output file 'C:\Users\Sam\Documents\HKUST\COMP4641\Project\circlejerk\387293904.html' for 'Scope Display'.
Generated output file 'C:\Users\Sam\Documents\HKUST\COMP4641\Project\circlejerk\387293926.html' for 'Created UTC'.
Generated output file 'C:\Users\Sam\Documents\HKUST\COMP4641\Project\circlejerk\387293927.html' for 'Comment  (t1_cgtjsl3)'.
Generated output file 'C:\Users\Sam\Documents\HKUST\COMP4641\Project\circlejerk\387293928.html' for 'Comment  (t1_cgtmsm7)'.
Generated output file 'C:\Users\Sam\Documents\HKUST\COMP4641\Project\circlejerk\387293929.html' for 'Comment  (t1_cgtlr8u)'.
Generated output file 'C:\Users\Sam\Documents\HKUST\COMP4641\Project\circlejerk\387293930.html' for 'Comment  (t1_cgtqptm)'.
Generated output file 'C:\Users\Sam\Documents\HKUST\COMP4641\Project\circlejerk\387293931.html' for 'Comment  (t1_cgtqdlv)'.
Generated output file 'C:\Users\Sam\Documents\HKUST\COMP4641\Project\circlejerk\387293932.html' for 'Comment  (t1_cgto7fh)'.
Generated output file 'C:\Users\Sam\Documents\HKUST\COMP4641\Project\circlejerk\387293933.html' for 'Comment  (t1_cgtpajx)'.
Generated output file 'C:\Users\Sam\Documents\HKUST\COMP4641\Project\circlejerk\387293934.html' for 'Comment  (t1_cgto2ym)'.
Generated output file 'C:\Users\Sam\Documents\HKUST\COMP4641\Project\circlejerk\387293935.html' for 'Comment  (t1_cgtosnr)'.
Generated output file 'C:\Users\Sam\Documents\HKUST\COMP4641\Project\circlejerk\387294608.html' for 'Comment  (t1_cgtjmml)'.
Generated output file 'C:\Users\Sam\Documents\HKUST\COMP4641\Project\circlejerk\387294609.html' for 'Comment  (t1_cgtjn6q)'.
Generated output file 'C:\Users\Sam\Documents\HKUST\COMP4641\Project\circlejerk\387294610.html' for 'Comment  (t1_cgto0wk)'.
Generated output file 'C:\Users\Sam\Documents\HKUST\COMP4641\Project\circlejerk\387294611.html' for 'Comment  (t1_cgtqab9)'.
Generated output file 'C:\Users\Sam\Documents\HKUST\COMP4641\Project\circlejerk\387294612.html' for 'Comment  (t1_cgtjqg7)'.
Generated output file 'C:\Users\Sam\Documents\HKUST\COMP4641\Project\circlejerk\387294613.html' for 'Comment  (t1_cgtjnj9)'.
Generated output file 'C:\Users\Sam\Documents\HKUST\COMP4641\Project\circlejerk\387294614.html' for 'Comment  (t1_cgtp34e)'.
Generated output file 'C:\Users\Sam\Documents\HKUST\COMP4641\Project\circlejerk\387294615.html' for 'Comment  (t1_cgtjr8a)'.
Generated output file 'C:\Users\Sam\Documents\HKUST\COMP4641\Project\circlejerk\387294616.html' for 'Comment  (t1_cgtqujk)'.
Generated output file 'C:\Users\Sam\Documents\HKUST\COMP4641\Project\circlejerk\387294617.html' for 'Comment  (t1_cgto45o)'.
Generated output file 'C:\Users\Sam\Documents\HKUST\COMP4641\Project\circlejerk\387294639.html' for 'Comment  (t1_cgtqk8q)'.
Generated output file 'C:\Users\Sam\Documents\HKUST\COMP4641\Project\circlejerk\387294640.html' for 'Comment  (t1_cgtnln9)'.
Generated output file 'C:\Users\Sam\Documents\HKUST\COMP4641\Project\circlejerk\387294641.html' for 'Comment  (t1_cgtnes1)'.
Generated output file 'C:\Users\Sam\Documents\HKUST\COMP4641\Project\circlejerk\387294642.html' for 'Comment  (t1_cgtjspf)'.
Generated output file 'C:\Users\Sam\Documents\HKUST\COMP4641\Project\circlejerk\387294643.html' for 'Comment  (t1_cgtmo99)'.
Generated output file 'C:\Users\Sam\Documents\HKUST\COMP4641\Project\circlejerk\387294644.html' for 'Comment  (t1_cgtps4w)'.
Generated output file 'C:\Users\Sam\Documents\HKUST\COMP4641\Project\circlejerk\387294645.html' for 'Comment  (t1_cgtnz2k)'.
Generated output file 'C:\Users\Sam\Documents\HKUST\COMP4641\Project\circlejerk\387294646.html' for 'Comment  (t1_cgtobxi)'.
Generated output file 'C:\Users\Sam\Documents\HKUST\COMP4641\Project\circlejerk\387294647.html' for 'Comment  (t1_cgtqj8c)'.
Generated output file 'C:\Users\Sam\Documents\HKUST\COMP4641\Project\circlejerk\387294648.html' for 'Comment  (t1_cgtmxzt)'.
Generated output file 'C:\Users\Sam\Documents\HKUST\COMP4641\Project\circlejerk\387294670.html' for 'Comment  (t1_cgtp85p)'.
Generated output file 'C:\Users\Sam\Documents\HKUST\COMP4641\Project\circlejerk\387294671.html' for 'Comment  (t1_cgtn7a5)'.
Generated output file 'C:\Users\Sam\Documents\HKUST\COMP4641\Project\circlejerk\387294672.html' for 'Comment  (t1_cgto3b6)'.
Generated output file 'C:\Users\Sam\Documents\HKUST\COMP4641\Project\circlejerk\387294673.html' for 'Comment  (t1_cgtuoxh)'.
Generated output file 'C:\Users\Sam\Documents\HKUST\COMP4641\Project\circlejerk\387294674.html' for 'Comment  (t1_cgtof5v)'.
Generated output file 'C:\Users\Sam\Documents\HKUST\COMP4641\Project\circlejerk\387294675.html' for 'Comment  (t1_cgtpbcg)'.
Generated output file 'C:\Users\Sam\Documents\HKUST\COMP4641\Project\circlejerk\387294676.html' for 'Comment  (t1_cgtmat0)'.
Generated output file 'C:\Users\Sam\Documents\HKUST\COMP4641\Project\circlejerk\387294677.html' for 'Comment  (t1_cgtnmw6)'.
Generated output file 'C:\Users\Sam\Documents\HKUST\COMP4641\Project\circlejerk\387294678.html' for 'Comment  (t1_cgu3chu)'.
Generated output file 'C:\Users\Sam\Documents\HKUST\COMP4641\Project\circlejerk\387294679.html' for 'Comment  (t1_cgtoirs)'.
Generated output file 'C:\Users\Sam\Documents\HKUST\COMP4641\Project\circlejerk\387294701.html' for 'Comment  (t1_cgtqfec)'.
Generated output file 'C:\Users\Sam\Documents\HKUST\COMP4641\Project\circlejerk\387294702.html' for 'Comment  (t1_cgtjqtx)'.
Generated output file 'C:\Users\Sam\Documents\HKUST\COMP4641\Project\circlejerk\387294703.html' for 'Comment  (t1_cgtjru9)'.
Generated output file 'C:\Users\Sam\Documents\HKUST\COMP4641\Project\circlejerk\387294704.html' for 'Comment  (t1_cgtwys9)'.
Generated output file 'C:\Users\Sam\Documents\HKUST\COMP4641\Project\circlejerk\387294705.html' for 'Comment  (t1_cgu56es)'.
Generated output file 'C:\Users\Sam\Documents\HKUST\COMP4641\Project\circlejerk\387294706.html' for 'Comment  (t1_cgtnuks)'.
Generated output file 'C:\Users\Sam\Documents\HKUST\COMP4641\Project\circlejerk\387294707.html' for 'Comment  (t1_cgtjrdf)'.
Generated output file 'C:\Users\Sam\Documents\HKUST\COMP4641\Project\circlejerk\387294708.html' for 'Comment  (t1_cgtpium)'.
Generated output file 'C:\Users\Sam\Documents\HKUST\COMP4641\Project\circlejerk\387294709.html' for 'Comment  (t1_cgtorwj)'.
Generated output file 'C:\Users\Sam\Documents\HKUST\COMP4641\Project\circlejerk\387294710.html' for 'Comment  (t1_cgts3b4)'.
Generated output file 'C:\Users\Sam\Documents\HKUST\COMP4641\Project\circlejerk\387294732.html' for 'Comment  (t1_cgtkuo1)'.
Generated output file 'C:\Users\Sam\Documents\HKUST\COMP4641\Project\circlejerk\387294733.html' for 'Comment  (t1_cgtjs8j)'.
Generated output file 'C:\Users\Sam\Documents\HKUST\COMP4641\Project\circlejerk\387294734.html' for 'Comment  (t1_cgtjtej)'.
Generated output file 'C:\Users\Sam\Documents\HKUST\COMP4641\Project\circlejerk\387294735.html' for 'Comment  (t1_cgto2ho)'.
Generated output file 'C:\Users\Sam\Documents\HKUST\COMP4641\Project\circlejerk\387294736.html' for 'Comment  (t1_cgtk9sn)'.
Generated output file 'C:\Users\Sam\Documents\HKUST\COMP4641\Project\circlejerk\387294737.html' for 'Comment  (t1_cgtok1v)'.
Generated output file 'C:\Users\Sam\Documents\HKUST\COMP4641\Project\circlejerk\387294738.html' for 'Comment  (t1_cgtps5e)'.
Generated output file 'C:\Users\Sam\Documents\HKUST\COMP4641\Project\circlejerk\387294739.html' for 'Comment  (t1_cgtjsxn)'.
Generated output file 'C:\Users\Sam\Documents\HKUST\COMP4641\Project\circlejerk\387294740.html' for 'Comment  (t1_cgtoc38)'.
Generated output file 'C:\Users\Sam\Documents\HKUST\COMP4641\Project\circlejerk\387294741.html' for 'Comment  (t1_cgtvl3p)'.
Generated output file 'C:\Users\Sam\Documents\HKUST\COMP4641\Project\circlejerk\387294763.html' for 'Comment  (t1_cgtqqx6)'.
Generated output file 'C:\Users\Sam\Documents\HKUST\COMP4641\Project\circlejerk\387294764.html' for 'Comment  (t1_cgttajg)'.
Generated output file 'C:\Users\Sam\Documents\HKUST\COMP4641\Project\circlejerk\387294765.html' for 'Comment  (t1_cgtkuax)'.
Generated output file 'C:\Users\Sam\Documents\HKUST\COMP4641\Project\circlejerk\387294766.html' for 'Comment  (t1_cgtm9m7)'.
Generated output file 'C:\Users\Sam\Documents\HKUST\COMP4641\Project\circlejerk\387294767.html' for 'Comment  (t1_cgtokhq)'.
Generated output file 'C:\Users\Sam\Documents\HKUST\COMP4641\Project\circlejerk\387294768.html' for 'Comment  (t1_cgtx725)'.
Generated output file 'C:\Users\Sam\Documents\HKUST\COMP4641\Project\circlejerk\387294769.html' for 'Comment  (t1_cgtjwy3)'.
Generated output file 'C:\Users\Sam\Documents\HKUST\COMP4641\Project\circlejerk\387294770.html' for 'Comment  (t1_cgujdop)'.
Generated output file 'C:\Users\Sam\Documents\HKUST\COMP4641\Project\circlejerk\387294771.html' for 'Comment  (t1_cgtl32s)'.
Generated output file 'C:\Users\Sam\Documents\HKUST\COMP4641\Project\circlejerk\387294772.html' for 'Comment  (t1_cgtkwan)'.
Generated output file 'C:\Users\Sam\Documents\HKUST\COMP4641\Project\circlejerk\387294794.html' for 'Comment  (t1_cgtk273)'.
Generated output file 'C:\Users\Sam\Documents\HKUST\COMP4641\Project\circlejerk\387294795.html' for 'Comment  (t1_cgto87w)'.
Generated output file 'C:\Users\Sam\Documents\HKUST\COMP4641\Project\circlejerk\387294796.html' for 'Comment  (t1_cgto48d)'.
Generated output file 'C:\Users\Sam\Documents\HKUST\COMP4641\Project\circlejerk\387294797.html' for 'Comment  (t1_cgtp02z)'.
Generated output file 'C:\Users\Sam\Documents\HKUST\COMP4641\Project\circlejerk\387294798.html' for 'Comment  (t1_cgtoqul)'.
Generated output file 'C:\Users\Sam\Documents\HKUST\COMP4641\Project\circlejerk\387294799.html' for 'Comment  (t1_cgtk81r)'.
Generated output file 'C:\Users\Sam\Documents\HKUST\COMP4641\Project\circlejerk\387294800.html' for 'Comment  (t1_cgto63s)'.
Generated output file 'C:\Users\Sam\Documents\HKUST\COMP4641\Project\circlejerk\387294801.html' for 'Comment  (t1_cgtprli)'.
Generated output file 'C:\Users\Sam\Documents\HKUST\COMP4641\Project\circlejerk\387294802.html' for 'Comment  (t1_cgtplum)'.
Generated output file 'C:\Users\Sam\Documents\HKUST\COMP4641\Project\circlejerk\387294803.html' for 'Comment  (t1_cgtp7de)'.
Generated output file 'C:\Users\Sam\Documents\HKUST\COMP4641\Project\circlejerk\387294825.html' for 'Comment  (t1_cgtlt7h)'.
Generated output file 'C:\Users\Sam\Documents\HKUST\COMP4641\Project\circlejerk\387294826.html' for 'Comment  (t1_cgtkb9m)'.
Generated output file 'C:\Users\Sam\Documents\HKUST\COMP4641\Project\circlejerk\387294827.html' for 'Comment  (t1_cgtk9vp)'.
Generated output file 'C:\Users\Sam\Documents\HKUST\COMP4641\Project\circlejerk\387294828.html' for 'Comment  (t1_cgu0jsb)'.
Generated output file 'C:\Users\Sam\Documents\HKUST\COMP4641\Project\circlejerk\387294829.html' for 'Comment  (t1_cgtzmt0)'.
Generated output file 'C:\Users\Sam\Documents\HKUST\COMP4641\Project\circlejerk\387294830.html' for 'Comment  (t1_cgtnm93)'.
Generated output file 'C:\Users\Sam\Documents\HKUST\COMP4641\Project\circlejerk\387294831.html' for 'Comment  (t1_cgtngt9)'.
Generated output file 'C:\Users\Sam\Documents\HKUST\COMP4641\Project\circlejerk\387294832.html' for 'Comment  (t1_cgtr15w)'.
Generated output file 'C:\Users\Sam\Documents\HKUST\COMP4641\Project\circlejerk\387294833.html' for 'Comment  (t1_cgttzqc)'.
Generated output file 'C:\Users\Sam\Documents\HKUST\COMP4641\Project\circlejerk\387294834.html' for 'Comment  (t1_cgtos0j)'.
Generated output file 'C:\Users\Sam\Documents\HKUST\COMP4641\Project\circlejerk\387294856.html' for 'Comment  (t1_cgtqipb)'.
Generated output file 'C:\Users\Sam\Documents\HKUST\COMP4641\Project\circlejerk\387294857.html' for 'Comment  (t1_cgtoz3g)'.
Generated output file 'C:\Users\Sam\Documents\HKUST\COMP4641\Project\circlejerk\387294858.html' for 'Comment  (t1_cgtoq49)'.
Generated output file 'C:\Users\Sam\Documents\HKUST\COMP4641\Project\circlejerk\387294859.html' for 'Comment  (t1_cgupf1d)'.
Generated output file 'C:\Users\Sam\Documents\HKUST\COMP4641\Project\circlejerk\387294860.html' for 'Comment  (t1_cgtsi7s)'.
Generated output file 'C:\Users\Sam\Documents\HKUST\COMP4641\Project\circlejerk\387294861.html' for 'Comment  (t1_cgtku2f)'.
Generated output file 'C:\Users\Sam\Documents\HKUST\COMP4641\Project\circlejerk\387294862.html' for 'Comment  (t1_cgu1ba0)'.
Generated output file 'C:\Users\Sam\Documents\HKUST\COMP4641\Project\circlejerk\387294863.html' for 'Comment  (t1_cgtrowy)'.
Generated output file 'C:\Users\Sam\Documents\HKUST\COMP4641\Project\circlejerk\387294864.html' for 'Comment  (t1_cgtkb05)'.
Generated output file 'C:\Users\Sam\Documents\HKUST\COMP4641\Project\circlejerk\387294865.html' for 'Comment  (t1_cgtnzqm)'.
Generated output file 'C:\Users\Sam\Documents\HKUST\COMP4641\Project\circlejerk\387294887.html' for 'Comment  (t1_cgts2yo)'.
Generated output file 'C:\Users\Sam\Documents\HKUST\COMP4641\Project\circlejerk\387294888.html' for 'Comment  (t1_cgtv6pb)'.
Generated output file 'C:\Users\Sam\Documents\HKUST\COMP4641\Project\circlejerk\387294889.html' for 'Comment  (t1_cgtkfgw)'.
Generated output file 'C:\Users\Sam\Documents\HKUST\COMP4641\Project\circlejerk\387294890.html' for 'Comment  (t1_cgtoxeg)'.
Generated output file 'C:\Users\Sam\Documents\HKUST\COMP4641\Project\circlejerk\387294891.html' for 'Comment  (t1_cgton43)'.
Generated output file 'C:\Users\Sam\Documents\HKUST\COMP4641\Project\circlejerk\387294892.html' for 'Comment  (t1_cgu59tg)'.
Generated output file 'C:\Users\Sam\Documents\HKUST\COMP4641\Project\circlejerk\387294893.html' for 'Comment  (t1_cgupenz)'.
Generated output file 'C:\Users\Sam\Documents\HKUST\COMP4641\Project\circlejerk\387294894.html' for 'Comment  (t1_cgtu00r)'.
Generated output file 'C:\Users\Sam\Documents\HKUST\COMP4641\Project\circlejerk\387294895.html' for 'Comment  (t1_cgtnfiv)'.
Generated output file 'C:\Users\Sam\Documents\HKUST\COMP4641\Project\circlejerk\387294896.html' for 'Comment  (t1_cgtnp89)'.
Generated output file 'C:\Users\Sam\Documents\HKUST\COMP4641\Project\circlejerk\387295569.html' for 'Comment  (t1_cgtn4v7)'.
Generated output file 'C:\Users\Sam\Documents\HKUST\COMP4641\Project\circlejerk\387295570.html' for 'Comment  (t1_cgtkjmb)'.
Generated output file 'C:\Users\Sam\Documents\HKUST\COMP4641\Project\circlejerk\387295571.html' for 'Comment  (t1_cgtm8qk)'.
Generated output file 'C:\Users\Sam\Documents\HKUST\COMP4641\Project\circlejerk\387295572.html' for 'Comment  (t1_cgtkm06)'.
Generated output file 'C:\Users\Sam\Documents\HKUST\COMP4641\Project\circlejerk\387295573.html' for 'Comment  (t1_cgtklon)'.
Generated output file 'C:\Users\Sam\Documents\HKUST\COMP4641\Project\circlejerk\387295574.html' for 'Comment  (t1_cgtkr21)'.
Generated output file 'C:\Users\Sam\Documents\HKUST\COMP4641\Project\circlejerk\387295575.html' for 'Comment  (t1_cgtkwqg)'.
Generated output file 'C:\Users\Sam\Documents\HKUST\COMP4641\Project\circlejerk\387295576.html' for 'Comment  (t1_cgtnoqr)'.
Generated output file 'C:\Users\Sam\Documents\HKUST\COMP4641\Project\circlejerk\387295577.html' for 'Comment  (t1_cguq4tb)'.
Generated output file 'C:\Users\Sam\Documents\HKUST\COMP4641\Project\circlejerk\387295578.html' for 'Comment  (t1_cgto58q)'.
Generated output file 'C:\Users\Sam\Documents\HKUST\COMP4641\Project\circlejerk\387295600.html' for 'Comment  (t1_cgtoetj)'.
Generated output file 'C:\Users\Sam\Documents\HKUST\COMP4641\Project\circlejerk\387295601.html' for 'Comment  (t1_cgtkowe)'.
Generated output file 'C:\Users\Sam\Documents\HKUST\COMP4641\Project\circlejerk\387295602.html' for 'Comment  (t1_cgtogm4)'.
Generated output file 'C:\Users\Sam\Documents\HKUST\COMP4641\Project\circlejerk\387295603.html' for 'Comment  (t1_cgtofep)'.
Generated output file 'C:\Users\Sam\Documents\HKUST\COMP4641\Project\circlejerk\387295604.html' for 'Comment  (t1_cgtkwtp)'.
Generated output file 'C:\Users\Sam\Documents\HKUST\COMP4641\Project\circlejerk\387295605.html' for 'Comment  (t1_cgtknd0)'.
Generated output file 'C:\Users\Sam\Documents\HKUST\COMP4641\Project\circlejerk\387295606.html' for 'Comment  (t1_cgtoios)'.
Generated output file 'C:\Users\Sam\Documents\HKUST\COMP4641\Project\circlejerk\387295607.html' for 'Comment  (t1_cgtpiby)'.
Generated output file 'C:\Users\Sam\Documents\HKUST\COMP4641\Project\circlejerk\387295608.html' for 'Comment  (t1_cgtmb99)'.
Generated output file 'C:\Users\Sam\Documents\HKUST\COMP4641\Project\circlejerk\387295609.html' for 'Comment  (t1_cgtn99z)'.
Generated output file 'C:\Users\Sam\Documents\HKUST\COMP4641\Project\circlejerk\387295631.html' for 'Comment  (t1_cgtlbbx)'.
Generated output file 'C:\Users\Sam\Documents\HKUST\COMP4641\Project\circlejerk\387295632.html' for 'Comment  (t1_cgtkvr4)'.
Generated output file 'C:\Users\Sam\Documents\HKUST\COMP4641\Project\circlejerk\387295633.html' for 'Comment  (t1_cgtowgr)'.
Generated output file 'C:\Users\Sam\Documents\HKUST\COMP4641\Project\circlejerk\387295634.html' for 'Comment  (t1_cgtpe0e)'.
Generated output file 'C:\Users\Sam\Documents\HKUST\COMP4641\Project\circlejerk\387295635.html' for 'Comment  (t1_cgtt9o2)'.
Generated output file 'C:\Users\Sam\Documents\HKUST\COMP4641\Project\circlejerk\387295636.html' for 'Comment  (t1_cgudqzt)'.
Generated output file 'C:\Users\Sam\Documents\HKUST\COMP4641\Project\circlejerk\387295637.html' for 'Comment  (t1_cgtkwd6)'.
Generated output file 'C:\Users\Sam\Documents\HKUST\COMP4641\Project\circlejerk\387295638.html' for 'Comment  (t1_cgu1ch6)'.
Generated output file 'C:\Users\Sam\Documents\HKUST\COMP4641\Project\circlejerk\387295639.html' for 'Comment  (t1_cgtombg)'.
Generated output file 'C:\Users\Sam\Documents\HKUST\COMP4641\Project\circlejerk\387295640.html' for 'Comment  (t1_cgtptz9)'.
Generated output file 'C:\Users\Sam\Documents\HKUST\COMP4641\Project\circlejerk\387295662.html' for 'Comment  (t1_cgtz4es)'.
Generated output file 'C:\Users\Sam\Documents\HKUST\COMP4641\Project\circlejerk\387295663.html' for 'Comment  (t1_cgtkxzb)'.
Generated output file 'C:\Users\Sam\Documents\HKUST\COMP4641\Project\circlejerk\387295664.html' for 'Comment  (t1_cgtkx6y)'.
Generated output file 'C:\Users\Sam\Documents\HKUST\COMP4641\Project\circlejerk\387295665.html' for 'Comment  (t1_cgtm2a5)'.
Generated output file 'C:\Users\Sam\Documents\HKUST\COMP4641\Project\circlejerk\387295666.html' for 'Comment  (t1_cgtkx4x)'.
Generated output file 'C:\Users\Sam\Documents\HKUST\COMP4641\Project\circlejerk\387295667.html' for 'Comment  (t1_cgtu60h)'.
Generated output file 'C:\Users\Sam\Documents\HKUST\COMP4641\Project\circlejerk\387295668.html' for 'Comment  (t1_cgtocqg)'.
Generated output file 'C:\Users\Sam\Documents\HKUST\COMP4641\Project\circlejerk\387295669.html' for 'Comment  (t1_cgtt8jn)'.
Generated output file 'C:\Users\Sam\Documents\HKUST\COMP4641\Project\circlejerk\387295670.html' for 'Comment  (t1_cgtmn5o)'.
Generated output file 'C:\Users\Sam\Documents\HKUST\COMP4641\Project\circlejerk\387295671.html' for 'Comment  (t1_cgtkzdq)'.
Generated output file 'C:\Users\Sam\Documents\HKUST\COMP4641\Project\circlejerk\387295693.html' for 'Comment  (t1_cgtqqro)'.
Generated output file 'C:\Users\Sam\Documents\HKUST\COMP4641\Project\circlejerk\387295694.html' for 'Comment  (t1_cgtskcp)'.
Generated output file 'C:\Users\Sam\Documents\HKUST\COMP4641\Project\circlejerk\387295695.html' for 'Comment  (t1_cgtm3oc)'.
Generated output file 'C:\Users\Sam\Documents\HKUST\COMP4641\Project\circlejerk\387295696.html' for 'Comment  (t1_cgtowxx)'.
Generated output file 'C:\Users\Sam\Documents\HKUST\COMP4641\Project\circlejerk\387295697.html' for 'Comment  (t1_cgtnyrl)'.
Generated output file 'C:\Users\Sam\Documents\HKUST\COMP4641\Project\circlejerk\387295698.html' for 'Comment  (t1_cgtkyj2)'.
Generated output file 'C:\Users\Sam\Documents\HKUST\COMP4641\Project\circlejerk\387295699.html' for 'Comment  (t1_cgtonz2)'.
Generated output file 'C:\Users\Sam\Documents\HKUST\COMP4641\Project\circlejerk\387295700.html' for 'Comment  (t1_cgtl014)'.
Generated output file 'C:\Users\Sam\Documents\HKUST\COMP4641\Project\circlejerk\387295701.html' for 'Comment  (t1_cgtqypr)'.
Generated output file 'C:\Users\Sam\Documents\HKUST\COMP4641\Project\circlejerk\387295702.html' for 'Comment  (t1_cgttn4t)'.
Generated output file 'C:\Users\Sam\Documents\HKUST\COMP4641\Project\circlejerk\387295724.html' for 'Comment  (t1_cgtlpxq)'.
Generated output file 'C:\Users\Sam\Documents\HKUST\COMP4641\Project\circlejerk\387295725.html' for 'Comment  (t1_cgtpk3v)'.
Generated output file 'C:\Users\Sam\Documents\HKUST\COMP4641\Project\circlejerk\387295726.html' for 'Comment  (t1_cgtlbxr)'.
Generated output file 'C:\Users\Sam\Documents\HKUST\COMP4641\Project\circlejerk\387295727.html' for 'Comment  (t1_cgtldci)'.
Generated output file 'C:\Users\Sam\Documents\HKUST\COMP4641\Project\circlejerk\387295728.html' for 'Comment  (t1_cgtl4i6)'.
Generated output file 'C:\Users\Sam\Documents\HKUST\COMP4641\Project\circlejerk\387295729.html' for 'Comment  (t1_cgupfch)'.
Generated output file 'C:\Users\Sam\Documents\HKUST\COMP4641\Project\circlejerk\387295730.html' for 'Comment  (t1_cgtld8l)'.
Generated output file 'C:\Users\Sam\Documents\HKUST\COMP4641\Project\circlejerk\387295731.html' for 'Comment  (t1_cgtmwqn)'.
Generated output file 'C:\Users\Sam\Documents\HKUST\COMP4641\Project\circlejerk\387295732.html' for 'Comment  (t1_cgtlyz8)'.
Generated output file 'C:\Users\Sam\Documents\HKUST\COMP4641\Project\circlejerk\387295733.html' for 'Comment  (t1_cgtondg)'.
Generated output file 'C:\Users\Sam\Documents\HKUST\COMP4641\Project\circlejerk\387295755.html' for 'Comment  (t1_cgtlm4c)'.
Generated output file 'C:\Users\Sam\Documents\HKUST\COMP4641\Project\circlejerk\387295756.html' for 'Comment  (t1_cgupe8f)'.
Generated output file 'C:\Users\Sam\Documents\HKUST\COMP4641\Project\circlejerk\387295757.html' for 'Comment  (t1_cgtlffc)'.
Generated output file 'C:\Users\Sam\Documents\HKUST\COMP4641\Project\circlejerk\387295758.html' for 'Comment  (t1_cgtrrbe)'.
Generated output file 'C:\Users\Sam\Documents\HKUST\COMP4641\Project\circlejerk\387295759.html' for 'Comment  (t1_cgtm479)'.
Generated output file 'C:\Users\Sam\Documents\HKUST\COMP4641\Project\circlejerk\387295760.html' for 'Comment  (t1_cgtuojl)'.
Generated output file 'C:\Users\Sam\Documents\HKUST\COMP4641\Project\circlejerk\387295761.html' for 'Comment  (t1_cgtpura)'.
Generated output file 'C:\Users\Sam\Documents\HKUST\COMP4641\Project\circlejerk\387295762.html' for 'Comment  (t1_cgtlk7n)'.
Generated output file 'C:\Users\Sam\Documents\HKUST\COMP4641\Project\circlejerk\387295763.html' for 'Comment  (t1_cgtn6m7)'.
Generated output file 'C:\Users\Sam\Documents\HKUST\COMP4641\Project\circlejerk\387295764.html' for 'Comment  (t1_cgtleht)'.
Generated output file 'C:\Users\Sam\Documents\HKUST\COMP4641\Project\circlejerk\387295786.html' for 'Comment  (t1_cgtln51)'.
Generated output file 'C:\Users\Sam\Documents\HKUST\COMP4641\Project\circlejerk\387295787.html' for 'Comment  (t1_cgtqi0a)'.
Generated output file 'C:\Users\Sam\Documents\HKUST\COMP4641\Project\circlejerk\387295788.html' for 'Comment  (t1_cgtpe93)'.
Generated output file 'C:\Users\Sam\Documents\HKUST\COMP4641\Project\circlejerk\387295789.html' for 'Comment  (t1_cgtlg0x)'.
Generated output file 'C:\Users\Sam\Documents\HKUST\COMP4641\Project\circlejerk\387295790.html' for 'Comment  (t1_cgtlrs0)'.
Generated output file 'C:\Users\Sam\Documents\HKUST\COMP4641\Project\circlejerk\387295791.html' for 'Comment  (t1_cgtlile)'.
Generated output file 'C:\Users\Sam\Documents\HKUST\COMP4641\Project\circlejerk\387295792.html' for 'Comment  (t1_cgtr21y)'.
Generated output file 'C:\Users\Sam\Documents\HKUST\COMP4641\Project\circlejerk\387295793.html' for 'Comment  (t1_cgtu1b4)'.
Generated output file 'C:\Users\Sam\Documents\HKUST\COMP4641\Project\circlejerk\387295794.html' for 'Comment  (t1_cgtqbuz)'.
Generated output file 'C:\Users\Sam\Documents\HKUST\COMP4641\Project\circlejerk\387295795.html' for 'Comment  (t1_cgtnmpx)'.
Generated output file 'C:\Users\Sam\Documents\HKUST\COMP4641\Project\circlejerk\387295817.html' for 'Comment  (t1_cgtlmmw)'.
Generated output file 'C:\Users\Sam\Documents\HKUST\COMP4641\Project\circlejerk\387295818.html' for 'Comment  (t1_cgtlxjc)'.
Generated output file 'C:\Users\Sam\Documents\HKUST\COMP4641\Project\circlejerk\387295819.html' for 'Comment  (t1_cgts5f0)'.
Generated output file 'C:\Users\Sam\Documents\HKUST\COMP4641\Project\circlejerk\387295820.html' for 'Comment  (t1_cgtmrsa)'.
Generated output file 'C:\Users\Sam\Documents\HKUST\COMP4641\Project\circlejerk\387295821.html' for 'Comment  (t1_cgtr2de)'.
Generated output file 'C:\Users\Sam\Documents\HKUST\COMP4641\Project\circlejerk\387295822.html' for 'Comment  (t1_cgtnzlz)'.
Generated output file 'C:\Users\Sam\Documents\HKUST\COMP4641\Project\circlejerk\387295823.html' for 'Comment  (t1_cgto8u8)'.
Generated output file 'C:\Users\Sam\Documents\HKUST\COMP4641\Project\circlejerk\387295824.html' for 'Comment  (t1_cgtnsbn)'.
Generated output file 'C:\Users\Sam\Documents\HKUST\COMP4641\Project\circlejerk\387295825.html' for 'Comment  (t1_cgtlrnc)'.
Generated output file 'C:\Users\Sam\Documents\HKUST\COMP4641\Project\circlejerk\387295826.html' for 'Comment  (t1_cgtn7mq)'.
Generated output file 'C:\Users\Sam\Documents\HKUST\COMP4641\Project\circlejerk\387295848.html' for 'Comment  (t1_cgtm3yz)'.
Generated output file 'C:\Users\Sam\Documents\HKUST\COMP4641\Project\circlejerk\387295849.html' for 'Comment  (t1_cgtnal5)'.
Generated output file 'C:\Users\Sam\Documents\HKUST\COMP4641\Project\circlejerk\387295850.html' for 'Comment  (t1_cgtnziz)'.
Generated output file 'C:\Users\Sam\Documents\HKUST\COMP4641\Project\circlejerk\387295851.html' for 'Comment  (t1_cgtw0vq)'.
Generated output file 'C:\Users\Sam\Documents\HKUST\COMP4641\Project\circlejerk\387295852.html' for 'Comment  (t1_cgtmbap)'.
Generated output file 'C:\Users\Sam\Documents\HKUST\COMP4641\Project\circlejerk\387295853.html' for 'Comment  (t1_cgtszlf)'.
Generated output file 'C:\Users\Sam\Documents\HKUST\COMP4641\Project\circlejerk\387295854.html' for 'Comment  (t1_cgtmzfv)'.
Generated output file 'C:\Users\Sam\Documents\HKUST\COMP4641\Project\circlejerk\387295855.html' for 'Comment  (t1_cgtm2ea)'.
Generated output file 'C:\Users\Sam\Documents\HKUST\COMP4641\Project\circlejerk\387295856.html' for 'Comment  (t1_cgtop27)'.
Generated output file 'C:\Users\Sam\Documents\HKUST\COMP4641\Project\circlejerk\387295857.html' for 'Comment  (t1_cgu4iwk)'.
Generated output file 'C:\Users\Sam\Documents\HKUST\COMP4641\Project\circlejerk\387296530.html' for 'Comment  (t1_cgttp0p)'.
Generated output file 'C:\Users\Sam\Documents\HKUST\COMP4641\Project\circlejerk\387296531.html' for 'Comment  (t1_cgtnrxl)'.
Generated output file 'C:\Users\Sam\Documents\HKUST\COMP4641\Project\circlejerk\387296532.html' for 'Comment  (t1_cgto3n1)'.
Generated output file 'C:\Users\Sam\Documents\HKUST\COMP4641\Project\circlejerk\387296533.html' for 'Comment  (t1_cgtpdgy)'.
Generated output file 'C:\Users\Sam\Documents\HKUST\COMP4641\Project\circlejerk\387296534.html' for 'Comment  (t1_cgtm3e8)'.
Generated output file 'C:\Users\Sam\Documents\HKUST\COMP4641\Project\circlejerk\387296535.html' for 'Comment  (t1_cgtlzsd)'.
Generated output file 'C:\Users\Sam\Documents\HKUST\COMP4641\Project\circlejerk\387296536.html' for 'Comment  (t1_cgtm65p)'.
Generated output file 'C:\Users\Sam\Documents\HKUST\COMP4641\Project\circlejerk\387296537.html' for 'Comment  (t1_cgtlzvq)'.
Generated output file 'C:\Users\Sam\Documents\HKUST\COMP4641\Project\circlejerk\387296538.html' for 'Comment  (t1_cgto1k4)'.
Generated output file 'C:\Users\Sam\Documents\HKUST\COMP4641\Project\circlejerk\387296539.html' for 'Comment  (t1_cgtqi18)'.
Generated output file 'C:\Users\Sam\Documents\HKUST\COMP4641\Project\circlejerk\387296561.html' for 'Comment  (t1_cgtm2sp)'.
Generated output file 'C:\Users\Sam\Documents\HKUST\COMP4641\Project\circlejerk\387296562.html' for 'Comment  (t1_cgtmfq4)'.
Generated output file 'C:\Users\Sam\Documents\HKUST\COMP4641\Project\circlejerk\387296563.html' for 'Comment  (t1_cgto3j1)'.
Generated output file 'C:\Users\Sam\Documents\HKUST\COMP4641\Project\circlejerk\387296564.html' for 'Comment  (t1_cgtnml7)'.
Generated output file 'C:\Users\Sam\Documents\HKUST\COMP4641\Project\circlejerk\387296565.html' for 'Comment  (t1_cgtmkvv)'.
Generated output file 'C:\Users\Sam\Documents\HKUST\COMP4641\Project\circlejerk\387296566.html' for 'Comment  (t1_cgtm4fn)'.
Generated output file 'C:\Users\Sam\Documents\HKUST\COMP4641\Project\circlejerk\387296567.html' for 'Comment  (t1_cgtvc0e)'.
Generated output file 'C:\Users\Sam\Documents\HKUST\COMP4641\Project\circlejerk\387296568.html' for 'Comment  (t1_cgtp4gn)'.
Generated output file 'C:\Users\Sam\Documents\HKUST\COMP4641\Project\circlejerk\387296569.html' for 'Comment  (t1_cgtmm9f)'.
Generated output file 'C:\Users\Sam\Documents\HKUST\COMP4641\Project\circlejerk\387296570.html' for 'Comment  (t1_cgtp85g)'.
Generated output file 'C:\Users\Sam\Documents\HKUST\COMP4641\Project\circlejerk\387296592.html' for 'Comment  (t1_cgtqt28)'.
Generated output file 'C:\Users\Sam\Documents\HKUST\COMP4641\Project\circlejerk\387296593.html' for 'Comment  (t1_cgtou9d)'.
Generated output file 'C:\Users\Sam\Documents\HKUST\COMP4641\Project\circlejerk\387296594.html' for 'Comment  (t1_cgtmmk2)'.
Generated output file 'C:\Users\Sam\Documents\HKUST\COMP4641\Project\circlejerk\387296595.html' for 'Comment  (t1_cgtm5aq)'.
Generated output file 'C:\Users\Sam\Documents\HKUST\COMP4641\Project\circlejerk\387296596.html' for 'Comment  (t1_cgto614)'.
Generated output file 'C:\Users\Sam\Documents\HKUST\COMP4641\Project\circlejerk\387296597.html' for 'Comment  (t1_cgtnzvo)'.
Generated output file 'C:\Users\Sam\Documents\HKUST\COMP4641\Project\circlejerk\387296598.html' for 'Comment  (t1_cgtm7jj)'.
Generated output file 'C:\Users\Sam\Documents\HKUST\COMP4641\Project\circlejerk\387296599.html' for 'Comment  (t1_cgtm9wa)'.
Generated output file 'C:\Users\Sam\Documents\HKUST\COMP4641\Project\circlejerk\387296600.html' for 'Comment  (t1_cgupf9q)'.
Generated output file 'C:\Users\Sam\Documents\HKUST\COMP4641\Project\circlejerk\387296601.html' for 'Comment  (t1_cgtrsir)'.
Generated output file 'C:\Users\Sam\Documents\HKUST\COMP4641\Project\circlejerk\387296623.html' for 'Comment  (t1_cgtm8le)'.
Generated output file 'C:\Users\Sam\Documents\HKUST\COMP4641\Project\circlejerk\387296624.html' for 'Comment  (t1_cgtmc5k)'.
Generated output file 'C:\Users\Sam\Documents\HKUST\COMP4641\Project\circlejerk\387296625.html' for 'Comment  (t1_cgto8hq)'.
Generated output file 'C:\Users\Sam\Documents\HKUST\COMP4641\Project\circlejerk\387296626.html' for 'Comment  (t1_cgtyqqi)'.
Generated output file 'C:\Users\Sam\Documents\HKUST\COMP4641\Project\circlejerk\387296627.html' for 'Comment  (t1_cgtmd94)'.
Generated output file 'C:\Users\Sam\Documents\HKUST\COMP4641\Project\circlejerk\387296628.html' for 'Comment  (t1_cgtoe55)'.
Generated output file 'C:\Users\Sam\Documents\HKUST\COMP4641\Project\circlejerk\387296629.html' for 'Comment  (t1_cgtowh4)'.
Generated output file 'C:\Users\Sam\Documents\HKUST\COMP4641\Project\circlejerk\387296630.html' for 'Comment  (t1_cgtmc8e)'.
Generated output file 'C:\Users\Sam\Documents\HKUST\COMP4641\Project\circlejerk\387296631.html' for 'Comment  (t1_cgtnxmz)'.
Generated output file 'C:\Users\Sam\Documents\HKUST\COMP4641\Project\circlejerk\387296632.html' for 'Comment  (t1_cgtobsq)'.
Generated output file 'C:\Users\Sam\Documents\HKUST\COMP4641\Project\circlejerk\387296654.html' for 'Comment  (t1_cgtolxi)'.
Generated output file 'C:\Users\Sam\Documents\HKUST\COMP4641\Project\circlejerk\387296655.html' for 'Comment  (t1_cgtner0)'.
Generated output file 'C:\Users\Sam\Documents\HKUST\COMP4641\Project\circlejerk\387296656.html' for 'Comment  (t1_cgto41c)'.
Generated output file 'C:\Users\Sam\Documents\HKUST\COMP4641\Project\circlejerk\387296657.html' for 'Comment  (t1_cgu4wyy)'.
Generated output file 'C:\Users\Sam\Documents\HKUST\COMP4641\Project\circlejerk\387296658.html' for 'Comment  (t1_cgtp1tw)'.
Generated output file 'C:\Users\Sam\Documents\HKUST\COMP4641\Project\circlejerk\387296659.html' for 'Comment  (t1_cgtmpze)'.
Generated output file 'C:\Users\Sam\Documents\HKUST\COMP4641\Project\circlejerk\387296660.html' for 'Comment  (t1_cgtwu7s)'.
Generated output file 'C:\Users\Sam\Documents\HKUST\COMP4641\Project\circlejerk\387296661.html' for 'Comment  (t1_cgtwu54)'.
Generated output file 'C:\Users\Sam\Documents\HKUST\COMP4641\Project\circlejerk\387296662.html' for 'Comment  (t1_cgtnfvo)'.
Generated output file 'C:\Users\Sam\Documents\HKUST\COMP4641\Project\circlejerk\387296663.html' for 'Comment  (t1_cgtsrt9)'.
Generated output file 'C:\Users\Sam\Documents\HKUST\COMP4641\Project\circlejerk\387296685.html' for 'Comment  (t1_cgto6mk)'.
Generated output file 'C:\Users\Sam\Documents\HKUST\COMP4641\Project\circlejerk\387296686.html' for 'Comment  (t1_cgtmzod)'.
Generated output file 'C:\Users\Sam\Documents\HKUST\COMP4641\Project\circlejerk\387296687.html' for 'Comment  (t1_cgtmd4j)'.
Generated output file 'C:\Users\Sam\Documents\HKUST\COMP4641\Project\circlejerk\387296688.html' for 'Comment  (t1_cgtshz6)'.
Generated output file 'C:\Users\Sam\Documents\HKUST\COMP4641\Project\circlejerk\387296689.html' for 'Comment  (t1_cgtoi37)'.
Generated output file 'C:\Users\Sam\Documents\HKUST\COMP4641\Project\circlejerk\387296690.html' for 'Comment  (t1_cgtmyuu)'.
Generated output file 'C:\Users\Sam\Documents\HKUST\COMP4641\Project\circlejerk\387296691.html' for 'Comment  (t1_cgtmoa9)'.
Generated output file 'C:\Users\Sam\Documents\HKUST\COMP4641\Project\circlejerk\387296692.html' for 'Comment  (t1_cgtmz3j)'.
Generated output file 'C:\Users\Sam\Documents\HKUST\COMP4641\Project\circlejerk\387296693.html' for 'Comment  (t1_cgtrrhs)'.
Generated output file 'C:\Users\Sam\Documents\HKUST\COMP4641\Project\circlejerk\387296694.html' for 'Comment  (t1_civphea)'.
Generated output file 'C:\Users\Sam\Documents\HKUST\COMP4641\Project\circlejerk\387296716.html' for 'Comment  (t1_cgu6nvh)'.
Generated output file 'C:\Users\Sam\Documents\HKUST\COMP4641\Project\circlejerk\387296717.html' for 'Comment  (t1_cgtn01i)'.
Generated output file 'C:\Users\Sam\Documents\HKUST\COMP4641\Project\circlejerk\387296718.html' for 'Comment  (t1_cgtmovb)'.
Generated output file 'C:\Users\Sam\Documents\HKUST\COMP4641\Project\circlejerk\387296719.html' for 'Comment  (t1_cgtmq2s)'.
Generated output file 'C:\Users\Sam\Documents\HKUST\COMP4641\Project\circlejerk\387296720.html' for 'Comment  (t1_cgtn16o)'.
Generated output file 'C:\Users\Sam\Documents\HKUST\COMP4641\Project\circlejerk\387296721.html' for 'Comment  (t1_cgtmqp2)'.
Generated output file 'C:\Users\Sam\Documents\HKUST\COMP4641\Project\circlejerk\387296722.html' for 'Comment  (t1_cgts7ez)'.
Generated output file 'C:\Users\Sam\Documents\HKUST\COMP4641\Project\circlejerk\387296723.html' for 'Comment  (t1_cgto2q2)'.
Generated output file 'C:\Users\Sam\Documents\HKUST\COMP4641\Project\circlejerk\387296724.html' for 'Comment  (t1_cgto70s)'.
Generated output file 'C:\Users\Sam\Documents\HKUST\COMP4641\Project\circlejerk\387296725.html' for 'Comment  (t1_cgtp3an)'.
Generated output file 'C:\Users\Sam\Documents\HKUST\COMP4641\Project\circlejerk\387296747.html' for 'Comment  (t1_cgtmt4e)'.
Generated output file 'C:\Users\Sam\Documents\HKUST\COMP4641\Project\circlejerk\387296748.html' for 'Comment  (t1_cgtrt71)'.
Generated output file 'C:\Users\Sam\Documents\HKUST\COMP4641\Project\circlejerk\387296749.html' for 'Comment  (t1_cgtn02u)'.
Generated output file 'C:\Users\Sam\Documents\HKUST\COMP4641\Project\circlejerk\387296750.html' for 'Comment  (t1_cgtptmb)'.
Generated output file 'C:\Users\Sam\Documents\HKUST\COMP4641\Project\circlejerk\387296751.html' for 'Comment  (t1_cgtq6yc)'.
Generated output file 'C:\Users\Sam\Documents\HKUST\COMP4641\Project\circlejerk\387296752.html' for 'Comment  (t1_cgu0l4w)'.
Generated output file 'C:\Users\Sam\Documents\HKUST\COMP4641\Project\circlejerk\387296753.html' for 'Comment  (t1_cgtnbjw)'.
Generated output file 'C:\Users\Sam\Documents\HKUST\COMP4641\Project\circlejerk\387296754.html' for 'Comment  (t1_cgtopza)'.
Generated output file 'C:\Users\Sam\Documents\HKUST\COMP4641\Project\circlejerk\387296755.html' for 'Comment  (t1_cgtvu6c)'.
Generated output file 'C:\Users\Sam\Documents\HKUST\COMP4641\Project\circlejerk\387296756.html' for 'Comment  (t1_cgtn3jd)'.
Generated output file 'C:\Users\Sam\Documents\HKUST\COMP4641\Project\circlejerk\387296778.html' for 'Comment  (t1_cgto3at)'.
Generated output file 'C:\Users\Sam\Documents\HKUST\COMP4641\Project\circlejerk\387296779.html' for 'Comment  (t1_cgto9c6)'.
Generated output file 'C:\Users\Sam\Documents\HKUST\COMP4641\Project\circlejerk\387296780.html' for 'Comment  (t1_cgtn4k8)'.
Generated output file 'C:\Users\Sam\Documents\HKUST\COMP4641\Project\circlejerk\387296781.html' for 'Comment  (t1_cgtn5yh)'.
Generated output file 'C:\Users\Sam\Documents\HKUST\COMP4641\Project\circlejerk\387296782.html' for 'Comment  (t1_cgtoswh)'.
Generated output file 'C:\Users\Sam\Documents\HKUST\COMP4641\Project\circlejerk\387296783.html' for 'Comment  (t1_cgtncfb)'.
Generated output file 'C:\Users\Sam\Documents\HKUST\COMP4641\Project\circlejerk\387296784.html' for 'Comment  (t1_cgtookl)'.
Generated output file 'C:\Users\Sam\Documents\HKUST\COMP4641\Project\circlejerk\387296785.html' for 'Comment  (t1_cgu10kr)'.
Generated output file 'C:\Users\Sam\Documents\HKUST\COMP4641\Project\circlejerk\387296786.html' for 'Comment  (t1_cgtpi0b)'.
Generated output file 'C:\Users\Sam\Documents\HKUST\COMP4641\Project\circlejerk\387296787.html' for 'Comment  (t1_cgupf7g)'.
Generated output file 'C:\Users\Sam\Documents\HKUST\COMP4641\Project\circlejerk\387296809.html' for 'Comment  (t1_cgtn7p3)'.
Generated output file 'C:\Users\Sam\Documents\HKUST\COMP4641\Project\circlejerk\387296810.html' for 'Comment  (t1_cgtneb5)'.
Generated output file 'C:\Users\Sam\Documents\HKUST\COMP4641\Project\circlejerk\387296811.html' for 'Comment  (t1_cgtnpsb)'.
Generated output file 'C:\Users\Sam\Documents\HKUST\COMP4641\Project\circlejerk\387296812.html' for 'Comment  (t1_cgtqxtb)'.
Generated output file 'C:\Users\Sam\Documents\HKUST\COMP4641\Project\circlejerk\387296813.html' for 'Comment  (t1_cgto0xb)'.
Generated output file 'C:\Users\Sam\Documents\HKUST\COMP4641\Project\circlejerk\387296814.html' for 'Comment  (t1_cgtnot7)'.
Generated output file 'C:\Users\Sam\Documents\HKUST\COMP4641\Project\circlejerk\387296815.html' for 'Comment  (t1_cgtoqij)'.
Generated output file 'C:\Users\Sam\Documents\HKUST\COMP4641\Project\circlejerk\387296816.html' for 'Comment  (t1_cgtoj5t)'.
Generated output file 'C:\Users\Sam\Documents\HKUST\COMP4641\Project\circlejerk\387296817.html' for 'Comment  (t1_cgto4gj)'.
Generated output file 'C:\Users\Sam\Documents\HKUST\COMP4641\Project\circlejerk\387296818.html' for 'Comment  (t1_cgtongo)'.
Generated output file 'C:\Users\Sam\Documents\HKUST\COMP4641\Project\circlejerk\387297491.html' for 'Comment  (t1_cgtsqcv)'.
Generated output file 'C:\Users\Sam\Documents\HKUST\COMP4641\Project\circlejerk\387297492.html' for 'Comment  (t1_cgtx13n)'.
Generated output file 'C:\Users\Sam\Documents\HKUST\COMP4641\Project\circlejerk\387297493.html' for 'Comment  (t1_cgtr5fc)'.
Generated output file 'C:\Users\Sam\Documents\HKUST\COMP4641\Project\circlejerk\387297494.html' for 'Comment  (t1_cgtpr75)'.
Generated output file 'C:\Users\Sam\Documents\HKUST\COMP4641\Project\circlejerk\387297495.html' for 'Comment  (t1_cgtnot9)'.
Generated output file 'C:\Users\Sam\Documents\HKUST\COMP4641\Project\circlejerk\387297496.html' for 'Comment  (t1_cgtnh5i)'.
Generated output file 'C:\Users\Sam\Documents\HKUST\COMP4641\Project\circlejerk\387297497.html' for 'Comment  (t1_cgtw0ak)'.
Generated output file 'C:\Users\Sam\Documents\HKUST\COMP4641\Project\circlejerk\387297498.html' for 'Comment  (t1_cgtowmq)'.
Generated output file 'C:\Users\Sam\Documents\HKUST\COMP4641\Project\circlejerk\387297499.html' for 'Comment  (t1_cgtpddm)'.
Generated output file 'C:\Users\Sam\Documents\HKUST\COMP4641\Project\circlejerk\387297500.html' for 'Comment  (t1_cgtokfg)'.
Generated output file 'C:\Users\Sam\Documents\HKUST\COMP4641\Project\circlejerk\387297522.html' for 'Comment  (t1_cgtnz9m)'.
Generated output file 'C:\Users\Sam\Documents\HKUST\COMP4641\Project\circlejerk\387297523.html' for 'Comment  (t1_cgtodt5)'.
Generated output file 'C:\Users\Sam\Documents\HKUST\COMP4641\Project\circlejerk\387297524.html' for 'Comment  (t1_cgtt1rz)'.
Generated output file 'C:\Users\Sam\Documents\HKUST\COMP4641\Project\circlejerk\387297525.html' for 'Comment  (t1_cgto18k)'.
Generated output file 'C:\Users\Sam\Documents\HKUST\COMP4641\Project\circlejerk\387297526.html' for 'Comment  (t1_cgto8y1)'.
Generated output file 'C:\Users\Sam\Documents\HKUST\COMP4641\Project\circlejerk\387297527.html' for 'Comment  (t1_cgtook5)'.
Generated output file 'C:\Users\Sam\Documents\HKUST\COMP4641\Project\circlejerk\387297528.html' for 'Comment  (t1_cgto4vh)'.
Generated output file 'C:\Users\Sam\Documents\HKUST\COMP4641\Project\circlejerk\387297529.html' for 'Comment  (t1_cgtoiyz)'.
Generated output file 'C:\Users\Sam\Documents\HKUST\COMP4641\Project\circlejerk\387297530.html' for 'Comment  (t1_cgtqmy5)'.
Generated output file 'C:\Users\Sam\Documents\HKUST\COMP4641\Project\circlejerk\387297531.html' for 'Comment  (t1_cgtnowo)'.
Generated output file 'C:\Users\Sam\Documents\HKUST\COMP4641\Project\circlejerk\387297553.html' for 'Comment  (t1_cgto22o)'.
Generated output file 'C:\Users\Sam\Documents\HKUST\COMP4641\Project\circlejerk\387297554.html' for 'Comment  (t1_cgto3a1)'.
Generated output file 'C:\Users\Sam\Documents\HKUST\COMP4641\Project\circlejerk\387297555.html' for 'Comment  (t1_cgtnuk8)'.
Generated output file 'C:\Users\Sam\Documents\HKUST\COMP4641\Project\circlejerk\387297556.html' for 'Comment  (t1_cgtnpn2)'.
Generated output file 'C:\Users\Sam\Documents\HKUST\COMP4641\Project\circlejerk\387297557.html' for 'Comment  (t1_cgtocai)'.
Generated output file 'C:\Users\Sam\Documents\HKUST\COMP4641\Project\circlejerk\387297558.html' for 'Comment  (t1_cgtnrin)'.
Generated output file 'C:\Users\Sam\Documents\HKUST\COMP4641\Project\circlejerk\387297559.html' for 'Comment  (t1_cgtoxjv)'.
Generated output file 'C:\Users\Sam\Documents\HKUST\COMP4641\Project\circlejerk\387297560.html' for 'Comment  (t1_cgupfg2)'.
Generated output file 'C:\Users\Sam\Documents\HKUST\COMP4641\Project\circlejerk\387297561.html' for 'Comment  (t1_cgtnxzh)'.
Generated output file 'C:\Users\Sam\Documents\HKUST\COMP4641\Project\circlejerk\387297562.html' for 'Comment  (t1_cguk0jd)'.
Generated output file 'C:\Users\Sam\Documents\HKUST\COMP4641\Project\circlejerk\387297584.html' for 'Comment  (t1_cgtpi39)'.
Generated output file 'C:\Users\Sam\Documents\HKUST\COMP4641\Project\circlejerk\387297585.html' for 'Comment  (t1_cgtpzc4)'.
Generated output file 'C:\Users\Sam\Documents\HKUST\COMP4641\Project\circlejerk\387297586.html' for 'Comment  (t1_cgtojz7)'.
Generated output file 'C:\Users\Sam\Documents\HKUST\COMP4641\Project\circlejerk\387297587.html' for 'Comment  (t1_cgtoc5d)'.
Generated output file 'C:\Users\Sam\Documents\HKUST\COMP4641\Project\circlejerk\387297588.html' for 'Comment  (t1_cgtnx16)'.
Generated output file 'C:\Users\Sam\Documents\HKUST\COMP4641\Project\circlejerk\387297589.html' for 'Comment  (t1_cgto00v)'.
Generated output file 'C:\Users\Sam\Documents\HKUST\COMP4641\Project\circlejerk\387297590.html' for 'Comment  (t1_cgto839)'.
Generated output file 'C:\Users\Sam\Documents\HKUST\COMP4641\Project\circlejerk\387297591.html' for 'Comment  (t1_cgto7we)'.
Generated output file 'C:\Users\Sam\Documents\HKUST\COMP4641\Project\circlejerk\387297592.html' for 'Comment  (t1_cgto2p9)'.
Generated output file 'C:\Users\Sam\Documents\HKUST\COMP4641\Project\circlejerk\387297593.html' for 'Comment  (t1_cgto7lb)'.
Generated output file 'C:\Users\Sam\Documents\HKUST\COMP4641\Project\circlejerk\387297615.html' for 'Comment  (t1_cgtovtd)'.
Generated output file 'C:\Users\Sam\Documents\HKUST\COMP4641\Project\circlejerk\387297616.html' for 'Comment  (t1_cgtru3j)'.
Generated output file 'C:\Users\Sam\Documents\HKUST\COMP4641\Project\circlejerk\387297617.html' for 'Comment  (t1_cgtys78)'.
Generated output file 'C:\Users\Sam\Documents\HKUST\COMP4641\Project\circlejerk\387297618.html' for 'Comment  (t1_cgtti4g)'.
Generated output file 'C:\Users\Sam\Documents\HKUST\COMP4641\Project\circlejerk\387297619.html' for 'Comment  (t1_cgtzm3g)'.
Generated output file 'C:\Users\Sam\Documents\HKUST\COMP4641\Project\circlejerk\387297620.html' for 'Comment  (t1_cgtp062)'.
Generated output file 'C:\Users\Sam\Documents\HKUST\COMP4641\Project\circlejerk\387297621.html' for 'Comment  (t1_cgto3pf)'.
Generated output file 'C:\Users\Sam\Documents\HKUST\COMP4641\Project\circlejerk\387297622.html' for 'Comment  (t1_cgto787)'.
Generated output file 'C:\Users\Sam\Documents\HKUST\COMP4641\Project\circlejerk\387297623.html' for 'Comment  (t1_cgtvzf7)'.
Generated output file 'C:\Users\Sam\Documents\HKUST\COMP4641\Project\circlejerk\387297624.html' for 'Comment  (t1_cgu27af)'.
Generated output file 'C:\Users\Sam\Documents\HKUST\COMP4641\Project\circlejerk\387297646.html' for 'Comment  (t1_cgtobwf)'.
Generated output file 'C:\Users\Sam\Documents\HKUST\COMP4641\Project\circlejerk\387297647.html' for 'Comment  (t1_cgtoi94)'.
Generated output file 'C:\Users\Sam\Documents\HKUST\COMP4641\Project\circlejerk\387297648.html' for 'Comment  (t1_cgtoboy)'.
Generated output file 'C:\Users\Sam\Documents\HKUST\COMP4641\Project\circlejerk\387297649.html' for 'Comment  (t1_cgto5n9)'.
Generated output file 'C:\Users\Sam\Documents\HKUST\COMP4641\Project\circlejerk\387297650.html' for 'Comment  (t1_cgts7ip)'.
Generated output file 'C:\Users\Sam\Documents\HKUST\COMP4641\Project\circlejerk\387297651.html' for 'Comment  (t1_cgtqvbf)'.
Generated output file 'C:\Users\Sam\Documents\HKUST\COMP4641\Project\circlejerk\387297652.html' for 'Comment  (t1_cgu70yt)'.
Generated output file 'C:\Users\Sam\Documents\HKUST\COMP4641\Project\circlejerk\387297653.html' for 'Comment  (t1_cgtqv8y)'.
Generated output file 'C:\Users\Sam\Documents\HKUST\COMP4641\Project\circlejerk\387297654.html' for 'Comment  (t1_cgtp389)'.
Generated output file 'C:\Users\Sam\Documents\HKUST\COMP4641\Project\circlejerk\387297655.html' for 'Comment  (t1_cgtp6bw)'.
Generated output file 'C:\Users\Sam\Documents\HKUST\COMP4641\Project\circlejerk\387297677.html' for 'Comment  (t1_cgu5jfl)'.
Generated output file 'C:\Users\Sam\Documents\HKUST\COMP4641\Project\circlejerk\387297678.html' for 'Comment  (t1_cgu5oqm)'.
Generated output file 'C:\Users\Sam\Documents\HKUST\COMP4641\Project\circlejerk\387297679.html' for 'Comment  (t1_cgu5k4x)'.
Generated output file 'C:\Users\Sam\Documents\HKUST\COMP4641\Project\circlejerk\387297680.html' for 'Comment  (t1_cgtp41q)'.
Generated output file 'C:\Users\Sam\Documents\HKUST\COMP4641\Project\circlejerk\387297681.html' for 'Comment  (t1_cgtqbnc)'.
Generated output file 'C:\Users\Sam\Documents\HKUST\COMP4641\Project\circlejerk\387297682.html' for 'Comment  (t1_cgtp5ol)'.
Generated output file 'C:\Users\Sam\Documents\HKUST\COMP4641\Project\circlejerk\387297683.html' for 'Comment  (t1_cgtpihw)'.
Generated output file 'C:\Users\Sam\Documents\HKUST\COMP4641\Project\circlejerk\387297684.html' for 'Comment  (t1_cgtqr1q)'.
Generated output file 'C:\Users\Sam\Documents\HKUST\COMP4641\Project\circlejerk\387297685.html' for 'Comment  (t1_cgtvowe)'.
Generated output file 'C:\Users\Sam\Documents\HKUST\COMP4641\Project\circlejerk\387297686.html' for 'Comment  (t1_cgtr0n0)'.
Generated output file 'C:\Users\Sam\Documents\HKUST\COMP4641\Project\circlejerk\387297708.html' for 'Comment  (t1_cgtozm7)'.
Generated output file 'C:\Users\Sam\Documents\HKUST\COMP4641\Project\circlejerk\387297709.html' for 'Comment  (t1_cgtotg7)'.
Generated output file 'C:\Users\Sam\Documents\HKUST\COMP4641\Project\circlejerk\387297710.html' for 'Comment  (t1_cgtu6ns)'.
Generated output file 'C:\Users\Sam\Documents\HKUST\COMP4641\Project\circlejerk\387297711.html' for 'Comment  (t1_cgtp6gv)'.
Generated output file 'C:\Users\Sam\Documents\HKUST\COMP4641\Project\circlejerk\387297712.html' for 'Comment  (t1_cgtvs47)'.
Generated output file 'C:\Users\Sam\Documents\HKUST\COMP4641\Project\circlejerk\387297713.html' for 'Comment  (t1_cgtss28)'.
Generated output file 'C:\Users\Sam\Documents\HKUST\COMP4641\Project\circlejerk\387297714.html' for 'Comment  (t1_cgtpoxv)'.
Generated output file 'C:\Users\Sam\Documents\HKUST\COMP4641\Project\circlejerk\387297715.html' for 'Comment  (t1_cgu40ba)'.
Generated output file 'C:\Users\Sam\Documents\HKUST\COMP4641\Project\circlejerk\387297716.html' for 'Comment  (t1_cgtp0md)'.
Generated output file 'C:\Users\Sam\Documents\HKUST\COMP4641\Project\circlejerk\387297717.html' for 'Comment  (t1_cgtp0u8)'.
Generated output file 'C:\Users\Sam\Documents\HKUST\COMP4641\Project\circlejerk\387297739.html' for 'Comment  (t1_cgtpylv)'.
Generated output file 'C:\Users\Sam\Documents\HKUST\COMP4641\Project\circlejerk\387297740.html' for 'Comment  (t1_cgttdsn)'.
Generated output file 'C:\Users\Sam\Documents\HKUST\COMP4641\Project\circlejerk\387297741.html' for 'Comment  (t1_cgtp25c)'.
Generated output file 'C:\Users\Sam\Documents\HKUST\COMP4641\Project\circlejerk\387297742.html' for 'Comment  (t1_cgtpy9j)'.
Generated output file 'C:\Users\Sam\Documents\HKUST\COMP4641\Project\circlejerk\387297743.html' for 'Comment  (t1_cgtv12f)'.
Generated output file 'C:\Users\Sam\Documents\HKUST\COMP4641\Project\circlejerk\387297744.html' for 'Comment  (t1_cgtyuc5)'.
Generated output file 'C:\Users\Sam\Documents\HKUST\COMP4641\Project\circlejerk\387297745.html' for 'Comment  (t1_cguobz9)'.
Generated output file 'C:\Users\Sam\Documents\HKUST\COMP4641\Project\circlejerk\387297746.html' for 'Comment  (t1_cgtu3r9)'.
Generated output file 'C:\Users\Sam\Documents\HKUST\COMP4641\Project\circlejerk\387297747.html' for 'Comment  (t1_cgtp47u)'.
Generated output file 'C:\Users\Sam\Documents\HKUST\COMP4641\Project\circlejerk\387297748.html' for 'Comment  (t1_cgtp4cp)'.
Generated output file 'C:\Users\Sam\Documents\HKUST\COMP4641\Project\circlejerk\387297770.html' for 'Comment  (t1_cgtquro)'.
Generated output file 'C:\Users\Sam\Documents\HKUST\COMP4641\Project\circlejerk\387297771.html' for 'Comment  (t1_cgtqfxj)'.
Generated output file 'C:\Users\Sam\Documents\HKUST\COMP4641\Project\circlejerk\387297772.html' for 'Comment  (t1_cgtp8f4)'.
Generated output file 'C:\Users\Sam\Documents\HKUST\COMP4641\Project\circlejerk\387297773.html' for 'Comment  (t1_cgtpxlc)'.
Generated output file 'C:\Users\Sam\Documents\HKUST\COMP4641\Project\circlejerk\387297774.html' for 'Comment  (t1_cgtpe9f)'.
Generated output file 'C:\Users\Sam\Documents\HKUST\COMP4641\Project\circlejerk\387297775.html' for 'Comment  (t1_cgtpi59)'.
Generated output file 'C:\Users\Sam\Documents\HKUST\COMP4641\Project\circlejerk\387297776.html' for 'Comment  (t1_cgtpl2m)'.
Generated output file 'C:\Users\Sam\Documents\HKUST\COMP4641\Project\circlejerk\387297777.html' for 'Comment  (t1_cgtpl4o)'.
Generated output file 'C:\Users\Sam\Documents\HKUST\COMP4641\Project\circlejerk\387297778.html' for 'Comment  (t1_cgtpnq8)'.
Generated output file 'C:\Users\Sam\Documents\HKUST\COMP4641\Project\circlejerk\387297779.html' for 'Comment  (t1_cgts34x)'.
Generated output file 'C:\Users\Sam\Documents\HKUST\COMP4641\Project\circlejerk\387298452.html' for 'Comment  (t1_cgu6fh5)'.
Generated output file 'C:\Users\Sam\Documents\HKUST\COMP4641\Project\circlejerk\387298453.html' for 'Comment  (t1_cgtpsx8)'.
Generated output file 'C:\Users\Sam\Documents\HKUST\COMP4641\Project\circlejerk\387298454.html' for 'Comment  (t1_cgtptwh)'.
Generated output file 'C:\Users\Sam\Documents\HKUST\COMP4641\Project\circlejerk\387298455.html' for 'Comment  (t1_cgtpz66)'.
Generated output file 'C:\Users\Sam\Documents\HKUST\COMP4641\Project\circlejerk\387298456.html' for 'Comment  (t1_cgtpylc)'.
Generated output file 'C:\Users\Sam\Documents\HKUST\COMP4641\Project\circlejerk\387298457.html' for 'Comment  (t1_cgtrhwc)'.
Generated output file 'C:\Users\Sam\Documents\HKUST\COMP4641\Project\circlejerk\387298458.html' for 'Comment  (t1_cgtpzeb)'.
Generated output file 'C:\Users\Sam\Documents\HKUST\COMP4641\Project\circlejerk\387298459.html' for 'Comment  (t1_cgtpzof)'.
Generated output file 'C:\Users\Sam\Documents\HKUST\COMP4641\Project\circlejerk\387298460.html' for 'Comment  (t1_cgtq046)'.
Generated output file 'C:\Users\Sam\Documents\HKUST\COMP4641\Project\circlejerk\387298461.html' for 'Comment  (t1_cgtq22u)'.
Generated output file 'C:\Users\Sam\Documents\HKUST\COMP4641\Project\circlejerk\387298483.html' for 'Comment  (t1_cgtq69z)'.
Generated output file 'C:\Users\Sam\Documents\HKUST\COMP4641\Project\circlejerk\387298484.html' for 'Comment  (t1_cgtq6c5)'.
Generated output file 'C:\Users\Sam\Documents\HKUST\COMP4641\Project\circlejerk\387298485.html' for 'Comment  (t1_cgtq6m3)'.
Generated output file 'C:\Users\Sam\Documents\HKUST\COMP4641\Project\circlejerk\387298486.html' for 'Comment  (t1_cgtrhqr)'.
Generated output file 'C:\Users\Sam\Documents\HKUST\COMP4641\Project\circlejerk\387298487.html' for 'Comment  (t1_cgtq6u2)'.
Generated output file 'C:\Users\Sam\Documents\HKUST\COMP4641\Project\circlejerk\387298488.html' for 'Comment  (t1_cgupfke)'.
Generated output file 'C:\Users\Sam\Documents\HKUST\COMP4641\Project\circlejerk\387298489.html' for 'Comment  (t1_cgtrhn2)'.
Generated output file 'C:\Users\Sam\Documents\HKUST\COMP4641\Project\circlejerk\387298490.html' for 'Comment  (t1_cgtxl8b)'.
Generated output file 'C:\Users\Sam\Documents\HKUST\COMP4641\Project\circlejerk\387298491.html' for 'Comment  (t1_cgtq8vn)'.
Generated output file 'C:\Users\Sam\Documents\HKUST\COMP4641\Project\circlejerk\387298492.html' for 'Comment  (t1_cgtrhlh)'.
Generated output file 'C:\Users\Sam\Documents\HKUST\COMP4641\Project\circlejerk\387298514.html' for 'Comment  (t1_cgtq94w)'.
Generated output file 'C:\Users\Sam\Documents\HKUST\COMP4641\Project\circlejerk\387298515.html' for 'Comment  (t1_cgtqack)'.
Generated output file 'C:\Users\Sam\Documents\HKUST\COMP4641\Project\circlejerk\387298516.html' for 'Comment  (t1_cgtrhi5)'.
Generated output file 'C:\Users\Sam\Documents\HKUST\COMP4641\Project\circlejerk\387298517.html' for 'Comment  (t1_cgtznk0)'.
Generated output file 'C:\Users\Sam\Documents\HKUST\COMP4641\Project\circlejerk\387298518.html' for 'Comment  (t1_cgtqaj7)'.
Generated output file 'C:\Users\Sam\Documents\HKUST\COMP4641\Project\circlejerk\387298519.html' for 'Comment  (t1_cgtqav4)'.
Generated output file 'C:\Users\Sam\Documents\HKUST\COMP4641\Project\circlejerk\387298520.html' for 'Comment  (t1_cgtqbfn)'.
Generated output file 'C:\Users\Sam\Documents\HKUST\COMP4641\Project\circlejerk\387298521.html' for 'Comment  (t1_cgtrhg4)'.
Generated output file 'C:\Users\Sam\Documents\HKUST\COMP4641\Project\circlejerk\387298522.html' for 'Comment  (t1_cgtqc0y)'.
Generated output file 'C:\Users\Sam\Documents\HKUST\COMP4641\Project\circlejerk\387298523.html' for 'Comment  (t1_cgtrher)'.
Generated output file 'C:\Users\Sam\Documents\HKUST\COMP4641\Project\circlejerk\387298545.html' for 'Comment  (t1_cgtqc2f)'.
Generated output file 'C:\Users\Sam\Documents\HKUST\COMP4641\Project\circlejerk\387298546.html' for 'Comment  (t1_cgtrhbl)'.
Generated output file 'C:\Users\Sam\Documents\HKUST\COMP4641\Project\circlejerk\387298547.html' for 'Comment  (t1_cgtqcy1)'.
Generated output file 'C:\Users\Sam\Documents\HKUST\COMP4641\Project\circlejerk\387298548.html' for 'Comment  (t1_cgtrh9t)'.
Generated output file 'C:\Users\Sam\Documents\HKUST\COMP4641\Project\circlejerk\387298549.html' for 'Comment  (t1_cgtqd4e)'.
Generated output file 'C:\Users\Sam\Documents\HKUST\COMP4641\Project\circlejerk\387298550.html' for 'Comment  (t1_cgtqnzh)'.
Generated output file 'C:\Users\Sam\Documents\HKUST\COMP4641\Project\circlejerk\387298551.html' for 'Comment  (t1_cgtrh0c)'.
Generated output file 'C:\Users\Sam\Documents\HKUST\COMP4641\Project\circlejerk\387298552.html' for 'Comment  (t1_cgtqt0h)'.
Generated output file 'C:\Users\Sam\Documents\HKUST\COMP4641\Project\circlejerk\387298553.html' for 'Comment  (t1_cgts7z6)'.
Generated output file 'C:\Users\Sam\Documents\HKUST\COMP4641\Project\circlejerk\387298554.html' for 'Comment  (t1_cgtrz1p)'.
Generated output file 'C:\Users\Sam\Documents\HKUST\COMP4641\Project\circlejerk\387298576.html' for 'Comment  (t1_cgtuxwf)'.
Generated output file 'C:\Users\Sam\Documents\HKUST\COMP4641\Project\circlejerk\387298577.html' for 'Comment  (t1_cgtrf6b)'.
Generated output file 'C:\Users\Sam\Documents\HKUST\COMP4641\Project\circlejerk\387298578.html' for 'Comment  (t1_cgtqz8l)'.
Generated output file 'C:\Users\Sam\Documents\HKUST\COMP4641\Project\circlejerk\387298579.html' for 'Comment  (t1_cgtr1c9)'.
Generated output file 'C:\Users\Sam\Documents\HKUST\COMP4641\Project\circlejerk\387298580.html' for 'Comment  (t1_cgtr1yd)'.
Generated output file 'C:\Users\Sam\Documents\HKUST\COMP4641\Project\circlejerk\387298581.html' for 'Comment  (t1_cgtr20e)'.
Generated output file 'C:\Users\Sam\Documents\HKUST\COMP4641\Project\circlejerk\387298582.html' for 'Comment  (t1_cgtr4by)'.
Generated output file 'C:\Users\Sam\Documents\HKUST\COMP4641\Project\circlejerk\387298583.html' for 'Comment  (t1_cgtrgsy)'.
Generated output file 'C:\Users\Sam\Documents\HKUST\COMP4641\Project\circlejerk\387298584.html' for 'Comment  (t1_cgtr4z5)'.
Generated output file 'C:\Users\Sam\Documents\HKUST\COMP4641\Project\circlejerk\387298585.html' for 'Comment  (t1_cgtrgrt)'.
Generated output file 'C:\Users\Sam\Documents\HKUST\COMP4641\Project\circlejerk\387298607.html' for 'Comment  (t1_cgtul3e)'.
Generated output file 'C:\Users\Sam\Documents\HKUST\COMP4641\Project\circlejerk\387298608.html' for 'Comment  (t1_cgts2k5)'.
Generated output file 'C:\Users\Sam\Documents\HKUST\COMP4641\Project\circlejerk\387298609.html' for 'Comment  (t1_cgtr6d9)'.
Generated output file 'C:\Users\Sam\Documents\HKUST\COMP4641\Project\circlejerk\387298610.html' for 'Comment  (t1_cgtrgor)'.
Generated output file 'C:\Users\Sam\Documents\HKUST\COMP4641\Project\circlejerk\387298611.html' for 'Comment  (t1_cgtr95c)'.
Generated output file 'C:\Users\Sam\Documents\HKUST\COMP4641\Project\circlejerk\387298612.html' for 'Comment  (t1_cgtujnc)'.
Generated output file 'C:\Users\Sam\Documents\HKUST\COMP4641\Project\circlejerk\387298613.html' for 'Comment  (t1_cgtrgip)'.
Generated output file 'C:\Users\Sam\Documents\HKUST\COMP4641\Project\circlejerk\387298614.html' for 'Comment  (t1_cgtr9m9)'.
Generated output file 'C:\Users\Sam\Documents\HKUST\COMP4641\Project\circlejerk\387298615.html' for 'Comment  (t1_cgtrgg2)'.
Generated output file 'C:\Users\Sam\Documents\HKUST\COMP4641\Project\circlejerk\387298616.html' for 'Comment  (t1_cgtrbao)'.
Generated output file 'C:\Users\Sam\Documents\HKUST\COMP4641\Project\circlejerk\387298638.html' for 'Comment  (t1_cgtzi2y)'.
Generated output file 'C:\Users\Sam\Documents\HKUST\COMP4641\Project\circlejerk\387298639.html' for 'Comment  (t1_cgtrgc6)'.
Generated output file 'C:\Users\Sam\Documents\HKUST\COMP4641\Project\circlejerk\387298640.html' for 'Comment  (t1_cgtrch0)'.
Generated output file 'C:\Users\Sam\Documents\HKUST\COMP4641\Project\circlejerk\387298641.html' for 'Comment  (t1_cgtrga5)'.
Generated output file 'C:\Users\Sam\Documents\HKUST\COMP4641\Project\circlejerk\387298642.html' for 'Comment  (t1_cgtrd2m)'.
Generated output file 'C:\Users\Sam\Documents\HKUST\COMP4641\Project\circlejerk\387298643.html' for 'Comment  (t1_cgtrg7d)'.
Generated output file 'C:\Users\Sam\Documents\HKUST\COMP4641\Project\circlejerk\387298644.html' for 'Comment  (t1_cgtrd64)'.
Generated output file 'C:\Users\Sam\Documents\HKUST\COMP4641\Project\circlejerk\387298645.html' for 'Comment  (t1_cgtum74)'.
Generated output file 'C:\Users\Sam\Documents\HKUST\COMP4641\Project\circlejerk\387298646.html' for 'Comment  (t1_cgtrg5k)'.
Generated output file 'C:\Users\Sam\Documents\HKUST\COMP4641\Project\circlejerk\387298647.html' for 'Comment  (t1_cgtrdv7)'.
Generated output file 'C:\Users\Sam\Documents\HKUST\COMP4641\Project\circlejerk\387298669.html' for 'Comment  (t1_cgtrg3a)'.
Generated output file 'C:\Users\Sam\Documents\HKUST\COMP4641\Project\circlejerk\387298670.html' for 'Comment  (t1_cgtrdy6)'.
Generated output file 'C:\Users\Sam\Documents\HKUST\COMP4641\Project\circlejerk\387298671.html' for 'Comment  (t1_cgtrfzd)'.
Generated output file 'C:\Users\Sam\Documents\HKUST\COMP4641\Project\circlejerk\387298672.html' for 'Comment  (t1_cgtrfed)'.
Generated output file 'C:\Users\Sam\Documents\HKUST\COMP4641\Project\circlejerk\387298673.html' for 'Comment  (t1_cgtrgf5)'.
Generated output file 'C:\Users\Sam\Documents\HKUST\COMP4641\Project\circlejerk\387298674.html' for 'Comment  (t1_cgtrge0)'.
Generated output file 'C:\Users\Sam\Documents\HKUST\COMP4641\Project\circlejerk\387298675.html' for 'Comment  (t1_cgts5zx)'.
Generated output file 'C:\Users\Sam\Documents\HKUST\COMP4641\Project\circlejerk\387298676.html' for 'Comment  (t1_cgud1rt)'.
Generated output file 'C:\Users\Sam\Documents\HKUST\COMP4641\Project\circlejerk\387298677.html' for 'Comment  (t1_cgtryjg)'.
Generated output file 'C:\Users\Sam\Documents\HKUST\COMP4641\Project\circlejerk\387298678.html' for 'Comment  (t1_cgtri1g)'.
Generated output file 'C:\Users\Sam\Documents\HKUST\COMP4641\Project\circlejerk\387298700.html' for 'Comment  (t1_cgtw5bw)'.
Generated output file 'C:\Users\Sam\Documents\HKUST\COMP4641\Project\circlejerk\387298701.html' for 'Comment  (t1_cgu9thj)'.
Generated output file 'C:\Users\Sam\Documents\HKUST\COMP4641\Project\circlejerk\387298702.html' for 'Comment  (t1_cgtsbgz)'.
Generated output file 'C:\Users\Sam\Documents\HKUST\COMP4641\Project\circlejerk\387298703.html' for 'Comment  (t1_cgtsnkl)'.
Generated output file 'C:\Users\Sam\Documents\HKUST\COMP4641\Project\circlejerk\387298704.html' for 'Comment  (t1_cgtspk6)'.
Generated output file 'C:\Users\Sam\Documents\HKUST\COMP4641\Project\circlejerk\387298705.html' for 'Comment  (t1_cgtv17x)'.
Generated output file 'C:\Users\Sam\Documents\HKUST\COMP4641\Project\circlejerk\387298706.html' for 'Comment  (t1_cgu1fi8)'.
Generated output file 'C:\Users\Sam\Documents\HKUST\COMP4641\Project\circlejerk\387298707.html' for 'Comment  (t1_cgu04wg)'.
Generated output file 'C:\Users\Sam\Documents\HKUST\COMP4641\Project\circlejerk\387298708.html' for 'Comment  (t1_cgtz7ea)'.
Generated output file 'C:\Users\Sam\Documents\HKUST\COMP4641\Project\circlejerk\387298709.html' for 'Comment  (t1_cgtxuye)'.
Generated output file 'C:\Users\Sam\Documents\HKUST\COMP4641\Project\circlejerk\387298731.html' for 'Comment  (t1_cgtwj61)'.
Generated output file 'C:\Users\Sam\Documents\HKUST\COMP4641\Project\circlejerk\387298732.html' for 'Comment  (t1_cgtvman)'.
Generated output file 'C:\Users\Sam\Documents\HKUST\COMP4641\Project\circlejerk\387298733.html' for 'Comment  (t1_cgtzm1d)'.
Generated output file 'C:\Users\Sam\Documents\HKUST\COMP4641\Project\circlejerk\387298734.html' for 'Comment  (t1_cgu566w)'.
Generated output file 'C:\Users\Sam\Documents\HKUST\COMP4641\Project\circlejerk\387298735.html' for 'Comment  (t1_cgu20jc)'.
Generated output file 'C:\Users\Sam\Documents\HKUST\COMP4641\Project\circlejerk\387298736.html' for 'Comment  (t1_cgu5amc)'.
Generated output file 'C:\Users\Sam\Documents\HKUST\COMP4641\Project\circlejerk\387298737.html' for 'Comment  (t1_cgu811b)'.
Generated output file 'C:\Users\Sam\Documents\HKUST\COMP4641\Project\circlejerk\387298738.html' for 'Comment  (t1_cgujfty)'.
Generated output file 'C:\Users\Sam\Documents\HKUST\COMP4641\Project\circlejerk\387298739.html' for 'Comment  (t1_cgur8ny)'.
Generated output file 'C:\Users\Sam\Documents\HKUST\COMP4641\Project\circlejerk\387298740.html' for 'Comment  (t1_cgur3g4)'.
Generated output file 'C:\Users\Sam\Documents\HKUST\COMP4641\Project\circlejerk\387299413.html' for 'Comment  (t1_cgvck3h)'.
Generated output file 'C:\Users\Sam\Documents\HKUST\COMP4641\Project\circlejerk\387299414.html' for 'Comment  (t1_cguqz9h)'.
Generated output file 'C:\Users\Sam\Documents\HKUST\COMP4641\Project\circlejerk\387299415.html' for 'Comment  (t1_cguqvyb)'.
Generated output file 'C:\Users\Sam\Documents\HKUST\COMP4641\Project\circlejerk\387299416.html' for 'Comment  (t1_cguqtq6)'.
Generated output file 'C:\Users\Sam\Documents\HKUST\COMP4641\Project\circlejerk\387299417.html' for 'Comment  (t1_cgvckwa)'.
Creating index.html
Generated page index file 'C:\Users\Sam\Documents\HKUST\COMP4641\Project\circlejerk\index.html'
Export finished
